lab1-filters/sim/transcript
# vsim -c work.tb_adv_iir -voptargs="+acc" -do "mini_tcl.tcl" 
# Start time: 11:29:01 on Nov 17,2023
# ** Note: (vsim-3812) Design is being optimized...
# //  Questa Sim-64
# //  Version 2020.4 linux_x86_64 Oct 13 2020
# //
# //  Copyright 1991-2020 Mentor Graphics Corporation
# //  All Rights Reserved.
# //
# //  QuestaSim and its associated documentation contain trade
# //  secrets and commercial or financial information that are the property of
# //  Mentor Graphics Corporation and are privileged, confidential,
# //  and exempt from disclosure under the Freedom of Information Act,
# //  5 U.S.C. Section 552. Furthermore, this information
# //  is prohibited from disclosure under the Trade Secrets Act,
# //  18 U.S.C. Section 1905.
# //
# ** Warning: License feature 'msimhdlsim' will expire in 13 days.
# Loading work.tb_adv_iir(fast)
# ** Warning: License feature 'msimhdlmix' will expire in 13 days.
# Loading std.standard
# Loading std.textio(body)
# Loading ieee.std_logic_1164(body)
# Loading ieee.std_logic_arith(body)
# Loading ieee.std_logic_unsigned(body)
# Loading work.adv_clk_gen(beh)#1
# Loading ieee.std_logic_textio(body)
# Loading work.data_maker_adv(beh)#1
# Loading ieee.numeric_std(body)
# Loading ieee.math_real(body)
# Loading work.iir_pkg(body)
# Loading work.adv_iir(behav)#1
# Loading work.reg(behav)#1
# Loading work.reg(behav)#2
# Loading work.data_sink_adv(beh)#1
# do mini_tcl.tcl
# Time=0 Reset async
# Time=50 Reset async
# Time=150 Reset async
# Time=250 VIN:0, DIN:    0, VOUT: x, DOUT:    0
# Time=350 VIN:0, DIN:    0, VOUT: 0, DOUT:    0
# Time=450 VIN:1, DIN:    0, VOUT: 0, DOUT:    0
# Time=550 VIN:1, DIN:  158, VOUT: 0, DOUT:    0
# Time=650 VIN:1, DIN:    0, VOUT: 1, DOUT:    0
# Time=750 VIN:1, DIN:  414, VOUT: 1, DOUT:    0
# Time=850 VIN:1, DIN:    0, VOUT: 1, DOUT:    0
# Time=950 VIN:1, DIN:  511, VOUT: 1, DOUT:    0
# Time=1050 VIN:0, DIN:  511, VOUT: 1, DOUT:   64
# Time=1150 VIN:1, DIN: 1023, VOUT: 1, DOUT:   72
# Time=1250 VIN:1, DIN:  414, VOUT: 0, DOUT:  176
# Time=1350 VIN:1, DIN: 1023, VOUT: 1, DOUT:  176
# Time=1450 VIN:1, DIN:  158, VOUT: 1, DOUT:  192
# Time=1550 VIN:1, DIN: 1023, VOUT: 1, DOUT:  240
# Time=1650 VIN:1, DIN:  865, VOUT: 1, DOUT:  248
# Time=1750 VIN:1, DIN: 1023, VOUT: 1, DOUT:  200
# Time=1850 VIN:0, DIN: 1023, VOUT: 1, DOUT:  192
# Time=1950 VIN:0, DIN: 1023, VOUT: 1, DOUT:   88
# Time=2050 VIN:0, DIN: 1023, VOUT: 0, DOUT:   72
# Time=2150 VIN:0, DIN: 1023, VOUT: 0, DOUT:   72
# Time=2250 VIN:0, DIN: 1023, VOUT: 0, DOUT:   72
# Time=2350 VIN:0, DIN: 1023, VOUT: 0, DOUT:   72
# Time=2450 VIN:1, DIN:  609, VOUT: 0, DOUT:   72
# Time=2550 VIN:0, DIN:  609, VOUT: 0, DOUT:   72
# Time=2650 VIN:0, DIN:  609, VOUT: 1, DOUT:   72
# Time=2750 VIN:0, DIN:  609, VOUT: 0, DOUT:  960
# Time=2850 VIN:0, DIN:  609, VOUT: 0, DOUT:  960
# Time=2950 VIN:0, DIN:  609, VOUT: 0, DOUT:  960
# Time=3050 VIN:1, DIN: 1023, VOUT: 0, DOUT:  960
# Time=3150 VIN:1, DIN:  512, VOUT: 0, DOUT:  960
# Time=3250 VIN:0, DIN:  512, VOUT: 1, DOUT:  960
# Time=3350 VIN:0, DIN:  512, VOUT: 1, DOUT:  936
# Time=3450 VIN:0, DIN:  512, VOUT: 0, DOUT:  824
# Time=3550 VIN:0, DIN:  512, VOUT: 0, DOUT:  824
# Time=3650 VIN:1, DIN:    0, VOUT: 0, DOUT:  824
# Time=3750 VIN:0, DIN:    0, VOUT: 0, DOUT:  824
# Time=3850 VIN:1, DIN:  609, VOUT: 1, DOUT:  824
# Time=3950 VIN:0, DIN:  609, VOUT: 0, DOUT:  800
# Time=4050 VIN:0, DIN:  609, VOUT: 1, DOUT:  800
# Time=4150 VIN:0, DIN:  609, VOUT: 0, DOUT:  752
# Time=4250 VIN:1, DIN:    0, VOUT: 0, DOUT:  752
# Time=4350 VIN:1, DIN:  865, VOUT: 0, DOUT:  752
# Time=4450 VIN:1, DIN:    0, VOUT: 1, DOUT:  752
# Time=4550 VIN:1, DIN:  158, VOUT: 1, DOUT:  744
# Time=4650 VIN:0, DIN:  158, VOUT: 1, DOUT:  792
# Time=4750 VIN:0, DIN:  158, VOUT: 1, DOUT:  800
# Time=4850 VIN:1, DIN:    0, VOUT: 0, DOUT:  904
# Time=4950 VIN:0, DIN:    0, VOUT: 0, DOUT:  904
# Time=5050 VIN:0, DIN:    0, VOUT: 1, DOUT:  904
# Time=5150 VIN:0, DIN:    0, VOUT: 0, DOUT:  920
# Time=5250 VIN:1, DIN:  414, VOUT: 0, DOUT:  920
# Time=5350 VIN:0, DIN:  414, VOUT: 0, DOUT:  920
# Time=5450 VIN:1, DIN:    0, VOUT: 1, DOUT:  920
# Time=5550 VIN:1, DIN:  511, VOUT: 0, DOUT:   32
# Time=5650 VIN:0, DIN:  511, VOUT: 1, DOUT:   32
# Time=5750 VIN:0, DIN:  511, VOUT: 1, DOUT:   56
# Time=5850 VIN:1, DIN: 1023, VOUT: 0, DOUT:  168
# Time=5950 VIN:1, DIN:  414, VOUT: 0, DOUT:  168
# Time=6050 VIN:1, DIN: 1023, VOUT: 1, DOUT:  168
# Time=6150 VIN:0, DIN: 1023, VOUT: 1, DOUT:  192
# Time=6250 VIN:1, DIN:  158, VOUT: 1, DOUT:  240
# Time=6350 VIN:0, DIN:  158, VOUT: 0, DOUT:  248
# Time=6450 VIN:1, DIN: 1023, VOUT: 1, DOUT:  248
# Time=6550 VIN:0, DIN: 1023, VOUT: 0, DOUT:  200
# Time=6650 VIN:0, DIN: 1023, VOUT: 1, DOUT:  200
# Time=6750 VIN:1, DIN:  865, VOUT: 0, DOUT:  192
# Time=6850 VIN:1, DIN: 1023, VOUT: 0, DOUT:  192
# Time=6950 VIN:1, DIN:  609, VOUT: 1, DOUT:  192
# Time=7050 VIN:1, DIN: 1023, VOUT: 1, DOUT:   88
# Time=7150 VIN:1, DIN:  512, VOUT: 1, DOUT:   72
# Time=7250 VIN:0, DIN:  512, VOUT: 1, DOUT:  960
# Time=7350 VIN:1, DIN:    0, VOUT: 1, DOUT:  936
# Time=7450 VIN:0, DIN:    0, VOUT: 0, DOUT:  824
# Time=7550 VIN:0, DIN:    0, VOUT: 1, DOUT:  824
# Time=7650 VIN:0, DIN:    0, VOUT: 0, DOUT:  800
# Time=7750 VIN:0, DIN:    0, VOUT: 0, DOUT:  800
# Time=7850 VIN:1, DIN:  609, VOUT: 0, DOUT:  800
# Time=7950 VIN:1, DIN:    0, VOUT: 0, DOUT:  800
# Time=8050 VIN:1, DIN:  865, VOUT: 1, DOUT:  800
# Time=8150 VIN:0, DIN:  865, VOUT: 1, DOUT:  752
# Time=8250 VIN:0, DIN:  865, VOUT: 1, DOUT:  744
# Time=8350 VIN:0, DIN:  865, VOUT: 0, DOUT:  792
# Time=8450 VIN:1, DIN:    0, VOUT: 0, DOUT:  792
# Time=8550 VIN:0, DIN:    0, VOUT: 0, DOUT:  792
# Time=8650 VIN:0, DIN:    0, VOUT: 1, DOUT:  792
# Time=8750 VIN:1, DIN:  158, VOUT: 0, DOUT:  800
# Time=8850 VIN:0, DIN:  158, VOUT: 0, DOUT:  800
# Time=8950 VIN:0, DIN:  158, VOUT: 1, DOUT:  800
# Time=9050 VIN:1, DIN:    0, VOUT: 0, DOUT:  904
# Time=9150 VIN:1, DIN:  414, VOUT: 0, DOUT:  904
# Time=9250 VIN:0, DIN:  414, VOUT: 1, DOUT:  904
# Time=9350 VIN:1, DIN:    0, VOUT: 1, DOUT:  920
# Time=9450 VIN:1, DIN:  511, VOUT: 0, DOUT:   32
# Time=9550 VIN:0, DIN:  511, VOUT: 1, DOUT:   32
# Time=9650 VIN:1, DIN:    0, VOUT: 1, DOUT:   56
# Time=9750 VIN:0, DIN:    0, VOUT: 0, DOUT:  168
# Time=9850 VIN:1, DIN:  414, VOUT: 1, DOUT:  168
# Time=9950 VIN:1, DIN: 1023, VOUT: 0, DOUT:  192
# Time=10050 VIN:0, DIN: 1023, VOUT: 1, DOUT:  192
# Time=10150 VIN:1, DIN:  158, VOUT: 1, DOUT:  240
# Time=10250 VIN:1, DIN:    0, VOUT: 0, DOUT:  248
# Time=10350 VIN:1, DIN:  865, VOUT: 1, DOUT:  248
# Time=10450 VIN:1, DIN: 1023, VOUT: 1, DOUT:  208
# Time=10550 VIN:0, DIN: 1023, VOUT: 1, DOUT:  200
# Time=10650 VIN:1, DIN:  609, VOUT: 1, DOUT:   88
# Time=10750 VIN:1, DIN: 1023, VOUT: 0, DOUT:   72
# Time=10850 VIN:0, DIN: 1023, VOUT: 1, DOUT:   72
# Time=10950 VIN:0, DIN: 1023, VOUT: 1, DOUT:  960
# Time=11050 VIN:0, DIN: 1023, VOUT: 0, DOUT:  936
# Time=11150 VIN:1, DIN:  512, VOUT: 0, DOUT:  936
# Time=11250 VIN:1, DIN:    0, VOUT: 0, DOUT:  936
# Time=11350 VIN:0, DIN:    0, VOUT: 1, DOUT:  936
# Time=11450 VIN:1, DIN:  609, VOUT: 1, DOUT:  824
# Time=11550 VIN:0, DIN:  609, VOUT: 0, DOUT:  800
# Time=11650 VIN:0, DIN:  609, VOUT: 1, DOUT:  800
# Time=11750 VIN:1, DIN:    0, VOUT: 0, DOUT:  752
# Time=11850 VIN:0, DIN:    0, VOUT: 0, DOUT:  752
# Time=11950 VIN:1, DIN:  865, VOUT: 1, DOUT:  752
# Time=12050 VIN:1, DIN:    0, VOUT: 0, DOUT:  744
# Time=12150 VIN:1, DIN:  158, VOUT: 1, DOUT:  744
# Time=12250 VIN:0, DIN:  158, VOUT: 1, DOUT:  792
# Time=12350 VIN:1, DIN:    0, VOUT: 1, DOUT:  800
# Time=12450 VIN:1, DIN:  414, VOUT: 0, DOUT:  904
# Time=12550 VIN:1, DIN:    0, VOUT: 1, DOUT:  904
# Time=12650 VIN:0, DIN:    0, VOUT: 1, DOUT:  920
# Time=12750 VIN:0, DIN:    0, VOUT: 1, DOUT:   32
# Time=12850 VIN:1, DIN:  511, VOUT: 0, DOUT:   56
# Time=12950 VIN:1, DIN:    0, VOUT: 0, DOUT:   56
# Time=13050 VIN:0, DIN:    0, VOUT: 1, DOUT:   56
# Time=13150 VIN:0, DIN:    0, VOUT: 1, DOUT:  168
# Time=13250 VIN:1, DIN:  414, VOUT: 0, DOUT:  192
# Time=13350 VIN:0, DIN:  414, VOUT: 0, DOUT:  192
# Time=13450 VIN:1, DIN: 1023, VOUT: 1, DOUT:  192
# Time=13550 VIN:0, DIN: 1023, VOUT: 0, DOUT:  240
# Time=13650 VIN:1, DIN:  158, VOUT: 1, DOUT:  240
# Time=13750 VIN:0, DIN:  158, VOUT: 0, DOUT:  248
# Time=13850 VIN:1, DIN: 1023, VOUT: 1, DOUT:  248
# Time=13950 VIN:1, DIN:  865, VOUT: 0, DOUT:  208
# Time=14050 VIN:1, DIN: 1023, VOUT: 1, DOUT:  208
# Time=14150 VIN:1, DIN:  609, VOUT: 1, DOUT:  200
# Time=14250 VIN:1, DIN: 1023, VOUT: 1, DOUT:   88
# Time=14350 VIN:1, DIN:  512, VOUT: 1, DOUT:   72
# Time=14450 VIN:1, DIN:    0, VOUT: 1, DOUT:  960
# Time=14550 VIN:0, DIN:    0, VOUT: 1, DOUT:  936
# Time=14650 VIN:0, DIN:    0, VOUT: 1, DOUT:  824
# Time=14750 VIN:0, DIN:    0, VOUT: 0, DOUT:  800
# Time=14850 VIN:0, DIN:    0, VOUT: 0, DOUT:  800
# Time=14950 VIN:0, DIN:    0, VOUT: 0, DOUT:  800
# Time=15050 VIN:0, DIN:    0, VOUT: 0, DOUT:  800
# Time=15150 VIN:1, DIN:  609, VOUT: 0, DOUT:  800
# Time=15250 VIN:0, DIN:  609, VOUT: 0, DOUT:  800
# Time=15350 VIN:0, DIN:  609, VOUT: 1, DOUT:  800
# Time=15450 VIN:0, DIN:  609, VOUT: 0, DOUT:  752
# Time=15550 VIN:0, DIN:  609, VOUT: 0, DOUT:  752
# Time=15650 VIN:0, DIN:  609, VOUT: 0, DOUT:  752
# Time=15750 VIN:1, DIN:    0, VOUT: 0, DOUT:  752
# Time=15850 VIN:1, DIN:  865, VOUT: 0, DOUT:  752
# Time=15950 VIN:0, DIN:  865, VOUT: 1, DOUT:  752
# Time=16050 VIN:0, DIN:  865, VOUT: 1, DOUT:  744
# Time=16150 VIN:0, DIN:  865, VOUT: 0, DOUT:  792
# Time=16250 VIN:0, DIN:  865, VOUT: 0, DOUT:  792
# Time=16350 VIN:1, DIN:    0, VOUT: 0, DOUT:  792
# Time=16450 VIN:0, DIN:    0, VOUT: 0, DOUT:  792
# Time=16550 VIN:1, DIN:  158, VOUT: 1, DOUT:  792
# Time=16650 VIN:0, DIN:  158, VOUT: 0, DOUT:  800
# Time=16750 VIN:0, DIN:  158, VOUT: 1, DOUT:  800
# Time=16850 VIN:0, DIN:  158, VOUT: 0, DOUT:  904
# Time=16950 VIN:1, DIN:    0, VOUT: 0, DOUT:  904
# Time=17050 VIN:1, DIN:  414, VOUT: 0, DOUT:  904
# Time=17150 VIN:1, DIN:    0, VOUT: 1, DOUT:  904
# Time=17250 VIN:1, DIN:  511, VOUT: 1, DOUT:  920
# Time=17350 VIN:0, DIN:  511, VOUT: 1, DOUT:   32
# Time=17450 VIN:0, DIN:  511, VOUT: 1, DOUT:   56
# Time=17550 VIN:1, DIN: 1023, VOUT: 0, DOUT:  168
# Time=17650 VIN:0, DIN: 1023, VOUT: 0, DOUT:  168
# Time=17750 VIN:0, DIN: 1023, VOUT: 1, DOUT:  168
# Time=17850 VIN:0, DIN: 1023, VOUT: 0, DOUT:  192
# Time=17950 VIN:1, DIN:  414, VOUT: 0, DOUT:  192
# Time=18050 VIN:0, DIN:  414, VOUT: 0, DOUT:  192
# Time=18150 VIN:1, DIN: 1023, VOUT: 1, DOUT:  192
# Time=18250 VIN:1, DIN:  158, VOUT: 0, DOUT:  240
# Time=18350 VIN:0, DIN:  158, VOUT: 1, DOUT:  240
# Time=18450 VIN:0, DIN:  158, VOUT: 1, DOUT:  248
# Time=18550 VIN:1, DIN: 1023, VOUT: 0, DOUT:  200
# Time=18650 VIN:1, DIN:  865, VOUT: 0, DOUT:  200
# Time=18750 VIN:1, DIN:    0, VOUT: 1, DOUT:  200
# Time=18850 VIN:0, DIN:    0, VOUT: 1, DOUT:  192
# Time=18950 VIN:1, DIN:  609, VOUT: 1, DOUT:   88
# Time=19050 VIN:0, DIN:  609, VOUT: 0, DOUT:   72
# Time=19150 VIN:1, DIN:    0, VOUT: 1, DOUT:   72
# Time=19250 VIN:0, DIN:    0, VOUT: 0, DOUT:  960
# Time=19350 VIN:0, DIN:    0, VOUT: 1, DOUT:  960
# Time=19450 VIN:1, DIN:  512, VOUT: 0, DOUT:  936
# Time=19550 VIN:1, DIN:    0, VOUT: 0, DOUT:  936
# Time=19650 VIN:1, DIN:  609, VOUT: 1, DOUT:  936
# Time=19750 VIN:1, DIN: 1023, VOUT: 1, DOUT:  824
# Time=19850 VIN:1, DIN:  865, VOUT: 1, DOUT:  800
# Time=19950 VIN:0, DIN:  865, VOUT: 1, DOUT:  760
# Time=20050 VIN:1, DIN: 1023, VOUT: 1, DOUT:  752
# Time=20150 VIN:0, DIN: 1023, VOUT: 0, DOUT:  792
# Time=20250 VIN:0, DIN: 1023, VOUT: 1, DOUT:  792
# Time=20350 VIN:0, DIN: 1023, VOUT: 0, DOUT:  800
# Time=20450 VIN:0, DIN: 1023, VOUT: 0, DOUT:  800
# Time=20550 VIN:1, DIN:  158, VOUT: 0, DOUT:  800
# Time=20650 VIN:1, DIN:    0, VOUT: 0, DOUT:  800
# Time=20750 VIN:1, DIN:  414, VOUT: 1, DOUT:  800
# Time=20850 VIN:0, DIN:  414, VOUT: 1, DOUT:  904
# Time=20950 VIN:0, DIN:  414, VOUT: 1, DOUT:  920
# Time=21050 VIN:0, DIN:  414, VOUT: 0, DOUT:   32
# Time=21150 VIN:1, DIN: 1023, VOUT: 0, DOUT:   32
# Time=21250 VIN:0, DIN: 1023, VOUT: 0, DOUT:   32
# Time=21350 VIN:0, DIN: 1023, VOUT: 1, DOUT:   32
# Time=21450 VIN:1, DIN:  511, VOUT: 0, DOUT:   56
# Time=21550 VIN:0, DIN:  511, VOUT: 0, DOUT:   56
# Time=21650 VIN:0, DIN:  511, VOUT: 1, DOUT:   56
# Time=21750 VIN:1, DIN: 1023, VOUT: 0, DOUT:  168
# Time=21850 VIN:1, DIN:  414, VOUT: 0, DOUT:  168
# Time=21950 VIN:0, DIN:  414, VOUT: 1, DOUT:  168
# Time=22050 VIN:1, DIN: 1023, VOUT: 1, DOUT:  192
# Time=22150 VIN:1, DIN:  158, VOUT: 0, DOUT:  232
# Time=22250 VIN:0, DIN:  158, VOUT: 1, DOUT:  232
# Time=22350 VIN:1, DIN: 1023, VOUT: 1, DOUT:  240
# Time=22450 VIN:0, DIN: 1023, VOUT: 0, DOUT:  200
# Time=22550 VIN:1, DIN:  865, VOUT: 1, DOUT:  200
# Time=22650 VIN:1, DIN: 1023, VOUT: 0, DOUT:  192
# Time=22750 VIN:0, DIN: 1023, VOUT: 1, DOUT:  192
# Time=22850 VIN:1, DIN:  609, VOUT: 1, DOUT:   88
# Time=22950 VIN:1, DIN: 1023, VOUT: 0, DOUT:   72
# Time=23050 VIN:1, DIN:  512, VOUT: 1, DOUT:   72
# Time=23150 VIN:1, DIN: 1023, VOUT: 1, DOUT:  960
# Time=23250 VIN:0, DIN: 1023, VOUT: 1, DOUT:  936
# Time=23350 VIN:1, DIN:  609, VOUT: 1, DOUT:  824
# Time=23450 VIN:1, DIN: 1023, VOUT: 0, DOUT:  800
# Time=23550 VIN:0, DIN: 1023, VOUT: 1, DOUT:  800
# Time=23650 VIN:0, DIN: 1023, VOUT: 1, DOUT:  752
# Time=23750 VIN:0, DIN: 1023, VOUT: 0, DOUT:  744
# Time=23850 VIN:1, DIN:  865, VOUT: 0, DOUT:  744
# Time=23950 VIN:1, DIN:    0, VOUT: 0, DOUT:  744
# Time=24050 VIN:0, DIN:    0, VOUT: 1, DOUT:  744
# Time=24150 VIN:1, DIN:  158, VOUT: 1, DOUT:  784
# Time=24250 VIN:0, DIN:  158, VOUT: 0, DOUT:  792
# Time=24350 VIN:0, DIN:  158, VOUT: 1, DOUT:  792
# Time=24450 VIN:1, DIN: 1023, VOUT: 0, DOUT:  904
# Time=24550 VIN:0, DIN: 1023, VOUT: 0, DOUT:  904
# Time=24650 VIN:1, DIN:  414, VOUT: 1, DOUT:  904
# Time=24750 VIN:1, DIN:    0, VOUT: 0, DOUT:  920
# Time=24850 VIN:1, DIN:  511, VOUT: 1, DOUT:  920
# Time=24950 VIN:0, DIN:  511, VOUT: 1, DOUT:   32
# Time=25050 VIN:1, DIN:    0, VOUT: 1, DOUT:   56
# Time=25150 VIN:1, DIN:  414, VOUT: 0, DOUT:  168
# Time=25250 VIN:1, DIN:    0, VOUT: 1, DOUT:  168
# Time=25350 VIN:0, DIN:    0, VOUT: 1, DOUT:  192
# Time=25450 VIN:0, DIN:    0, VOUT: 1, DOUT:  240
# Time=25550 VIN:1, DIN:  158, VOUT: 0, DOUT:  248
# Time=25650 VIN:1, DIN: 1023, VOUT: 0, DOUT:  248
# Time=25750 VIN:0, DIN: 1023, VOUT: 1, DOUT:  248
# Time=25850 VIN:0, DIN: 1023, VOUT: 1, DOUT:  208
# Time=25950 VIN:1, DIN:  865, VOUT: 0, DOUT:  200
# Time=26050 VIN:0, DIN:  865, VOUT: 0, DOUT:  200
# Time=26150 VIN:1, DIN:    0, VOUT: 1, DOUT:  200
# Time=26250 VIN:0, DIN:    0, VOUT: 0, DOUT:   88
# Time=26350 VIN:1, DIN:  609, VOUT: 1, DOUT:   88
# Time=26450 VIN:0, DIN:  609, VOUT: 0, DOUT:   72
# Time=26550 VIN:1, DIN:    0, VOUT: 1, DOUT:   72
# Time=26650 VIN:1, DIN:  512, VOUT: 0, DOUT:  960
# Time=26750 VIN:1, DIN:    0, VOUT: 1, DOUT:  960
# Time=26850 VIN:1, DIN:  609, VOUT: 1, DOUT:  936
# Time=26950 VIN:1, DIN: 1023, VOUT: 1, DOUT:  824
# Time=27050 VIN:1, DIN:  865, VOUT: 1, DOUT:  800
# Time=27150 VIN:1, DIN:    0, VOUT: 1, DOUT:  760
# Time=27250 VIN:0, DIN:    0, VOUT: 1, DOUT:  752
# Time=27350 VIN:0, DIN:    0, VOUT: 1, DOUT:  792
# Time=27450 VIN:0, DIN:    0, VOUT: 0, DOUT:  800
# Time=27550 VIN:0, DIN:    0, VOUT: 0, DOUT:  800
# Time=27650 VIN:0, DIN:    0, VOUT: 0, DOUT:  800
# Time=27750 VIN:0, DIN:    0, VOUT: 0, DOUT:  800
# Time=27850 VIN:1, DIN:  158, VOUT: 0, DOUT:  800
# Time=27950 VIN:0, DIN:  158, VOUT: 0, DOUT:  800
# Time=28050 VIN:0, DIN:  158, VOUT: 1, DOUT:  800
# Time=28150 VIN:0, DIN:  158, VOUT: 0, DOUT:  904
# Time=28250 VIN:0, DIN:  158, VOUT: 0, DOUT:  904
# Time=28350 VIN:0, DIN:  158, VOUT: 0, DOUT:  904
# Time=28450 VIN:1, DIN:    0, VOUT: 0, DOUT:  904
# Time=28550 VIN:1, DIN:  414, VOUT: 0, DOUT:  904
# Time=28650 VIN:0, DIN:  414, VOUT: 1, DOUT:  904
# Time=28750 VIN:0, DIN:  414, VOUT: 1, DOUT:  920
# Time=28850 VIN:0, DIN:  414, VOUT: 0, DOUT:   32
# Time=28950 VIN:0, DIN:  414, VOUT: 0, DOUT:   32
# Time=29050 VIN:1, DIN:    0, VOUT: 0, DOUT:   32
# Time=29150 VIN:0, DIN:    0, VOUT: 0, DOUT:   32
# Time=29250 VIN:1, DIN:  511, VOUT: 1, DOUT:   32
# Time=29350 VIN:0, DIN:  511, VOUT: 0, DOUT:   56
# Time=29450 VIN:0, DIN:  511, VOUT: 1, DOUT:   56
# Time=29550 VIN:0, DIN:  511, VOUT: 0, DOUT:  168
# Time=29650 VIN:1, DIN: 1023, VOUT: 0, DOUT:  168
# Time=29750 VIN:1, DIN:  414, VOUT: 0, DOUT:  168
# Time=29850 VIN:1, DIN: 1023, VOUT: 1, DOUT:  168
# Time=29950 VIN:1, DIN:  158, VOUT: 1, DOUT:  192
# Time=30050 VIN:0, DIN:  158, VOUT: 1, DOUT:  240
# Time=30150 VIN:0, DIN:  158, VOUT: 1, DOUT:  248
# Time=30250 VIN:1, DIN:    0, VOUT: 0, DOUT:  200
# Time=30350 VIN:0, DIN:    0, VOUT: 0, DOUT:  200
# Time=30450 VIN:0, DIN:    0, VOUT: 1, DOUT:  200
# Time=30550 VIN:0, DIN:    0, VOUT: 0, DOUT:  192
# Time=30650 VIN:1, DIN:  865, VOUT: 0, DOUT:  192
# Time=30750 VIN:0, DIN:  865, VOUT: 0, DOUT:  192
# Time=30850 VIN:1, DIN: 1023, VOUT: 1, DOUT:  192
# Time=30950 VIN:1, DIN:  609, VOUT: 0, DOUT:   88
# Time=31050 VIN:0, DIN:  609, VOUT: 1, DOUT:   88
# Time=31150 VIN:0, DIN:  609, VOUT: 1, DOUT:   72
# Time=31250 VIN:1, DIN: 1023, VOUT: 0, DOUT:  960
# Time=31350 VIN:1, DIN:  512, VOUT: 0, DOUT:  960
# Time=31450 VIN:1, DIN: 1023, VOUT: 1, DOUT:  960
# Time=31550 VIN:0, DIN: 1023, VOUT: 1, DOUT:  936
# Time=31650 VIN:1, DIN:  609, VOUT: 1, DOUT:  824
# Time=31750 VIN:0, DIN:  609, VOUT: 0, DOUT:  800
# Time=31850 VIN:1, DIN:    0, VOUT: 1, DOUT:  800
# Time=31950 VIN:0, DIN:    0, VOUT: 0, DOUT:  752
# Time=32050 VIN:0, DIN:    0, VOUT: 1, DOUT:  752
# Time=32150 VIN:1, DIN:  865, VOUT: 0, DOUT:  744
# Time=32250 VIN:1, DIN:    0, VOUT: 0, DOUT:  744
# Time=32350 VIN:1, DIN:  158, VOUT: 1, DOUT:  744
# Time=32450 VIN:1, DIN: 1023, VOUT: 1, DOUT:  784
# Time=32550 VIN:1, DIN:  414, VOUT: 1, DOUT:  792
# Time=32650 VIN:0, DIN:  414, VOUT: 1, DOUT:  904
# Time=32750 VIN:1, DIN:    0, VOUT: 1, DOUT:  920
# Time=32850 VIN:0, DIN:    0, VOUT: 0, DOUT:   32
# Time=32950 VIN:0, DIN:    0, VOUT: 1, DOUT:   32
# Time=33050 VIN:0, DIN:    0, VOUT: 0, DOUT:   56
# Time=33150 VIN:0, DIN:    0, VOUT: 0, DOUT:   56
# Time=33250 VIN:1, DIN:  511, VOUT: 0, DOUT:   56
# Time=33350 VIN:1, DIN:    0, VOUT: 0, DOUT:   56
# Time=33450 VIN:1, DIN:  414, VOUT: 1, DOUT:   56
# Time=33550 VIN:0, DIN:  414, VOUT: 1, DOUT:  168
# Time=33650 VIN:0, DIN:  414, VOUT: 1, DOUT:  192
# Time=33750 VIN:0, DIN:  414, VOUT: 0, DOUT:  240
# Time=33850 VIN:1, DIN:    0, VOUT: 0, DOUT:  240
# Time=33950 VIN:0, DIN:    0, VOUT: 0, DOUT:  240
# Time=34050 VIN:0, DIN:    0, VOUT: 1, DOUT:  240
# Time=34150 VIN:1, DIN:  158, VOUT: 0, DOUT:  248
# Time=34250 VIN:0, DIN:  158, VOUT: 0, DOUT:  248
# Time=34350 VIN:0, DIN:  158, VOUT: 1, DOUT:  248
# Time=34450 VIN:1, DIN: 1023, VOUT: 0, DOUT:  208
# Time=34550 VIN:1, DIN:  865, VOUT: 0, DOUT:  208
# Time=34650 VIN:0, DIN:  865, VOUT: 1, DOUT:  208
# Time=34750 VIN:1, DIN: 1023, VOUT: 1, DOUT:  200
# Time=34850 VIN:1, DIN:  609, VOUT: 0, DOUT:   88
# Time=34950 VIN:0, DIN:  609, VOUT: 1, DOUT:   88
# Time=35050 VIN:1, DIN:    0, VOUT: 1, DOUT:   72
# Time=35150 VIN:0, DIN:    0, VOUT: 0, DOUT:  960
# Time=35250 VIN:1, DIN:  512, VOUT: 1, DOUT:  960
# Time=35350 VIN:1, DIN:    0, VOUT: 0, DOUT:  936
# Time=35450 VIN:0, DIN:    0, VOUT: 1, DOUT:  936
# Time=35550 VIN:1, DIN:  609, VOUT: 1, DOUT:  824
# Time=35650 VIN:1, DIN:    0, VOUT: 0, DOUT:  800
# Time=35750 VIN:1, DIN:  865, VOUT: 1, DOUT:  800
# Time=35850 VIN:1, DIN:    0, VOUT: 1, DOUT:  760
# Time=35950 VIN:0, DIN:    0, VOUT: 1, DOUT:  752
# Time=36050 VIN:1, DIN:  158, VOUT: 1, DOUT:  792
# Time=36150 VIN:1, DIN:    0, VOUT: 0, DOUT:  800
# Time=36250 VIN:0, DIN:    0, VOUT: 1, DOUT:  800
# Time=36350 VIN:0, DIN:    0, VOUT: 1, DOUT:  904
# Time=36450 VIN:0, DIN:    0, VOUT: 0, DOUT:  920
# Time=36550 VIN:1, DIN:  414, VOUT: 0, DOUT:  920
# Time=36650 VIN:1, DIN: 1023, VOUT: 0, DOUT:  920
# Time=36750 VIN:0, DIN: 1023, VOUT: 1, DOUT:  920
# Time=36850 VIN:1, DIN:  511, VOUT: 1, DOUT:   32
# Time=36950 VIN:0, DIN:  511, VOUT: 0, DOUT:   56
# Time=37050 VIN:0, DIN:  511, VOUT: 1, DOUT:   56
# Time=37150 VIN:1, DIN: 1023, VOUT: 0, DOUT:  168
# Time=37250 VIN:0, DIN: 1023, VOUT: 0, DOUT:  168
# Time=37350 VIN:1, DIN:  414, VOUT: 1, DOUT:  168
# Time=37450 VIN:1, DIN:    0, VOUT: 0, DOUT:  192
# Time=37550 VIN:1, DIN:  158, VOUT: 1, DOUT:  192
# Time=37650 VIN:0, DIN:  158, VOUT: 1, DOUT:  232
# Time=37750 VIN:1, DIN:    0, VOUT: 1, DOUT:  240
# Time=37850 VIN:1, DIN:  865, VOUT: 0, DOUT:  200
# Time=37950 VIN:1, DIN: 1023, VOUT: 1, DOUT:  200
# Time=38050 VIN:0, DIN: 1023, VOUT: 1, DOUT:  192
# Time=38150 VIN:0, DIN: 1023, VOUT: 1, DOUT:   88
# Time=38250 VIN:1, DIN:  609, VOUT: 0, DOUT:   72
# Time=38350 VIN:1, DIN:    0, VOUT: 0, DOUT:   72
# Time=38450 VIN:0, DIN:    0, VOUT: 1, DOUT:   72
# Time=38550 VIN:0, DIN:    0, VOUT: 1, DOUT:  960
# Time=38650 VIN:1, DIN:  512, VOUT: 0, DOUT:  936
# Time=38750 VIN:0, DIN:  512, VOUT: 0, DOUT:  936
# Time=38850 VIN:1, DIN: 1023, VOUT: 1, DOUT:  936
# Time=38950 VIN:0, DIN: 1023, VOUT: 0, DOUT:  824
# Time=39050 VIN:1, DIN:  609, VOUT: 1, DOUT:  824
# Time=39150 VIN:0, DIN:  609, VOUT: 0, DOUT:  800
# Time=39250 VIN:1, DIN:    0, VOUT: 1, DOUT:  800
# Time=39350 VIN:1, DIN:  865, VOUT: 0, DOUT:  760
# Time=39450 VIN:1, DIN: 1023, VOUT: 1, DOUT:  760
# Time=39550 VIN:0, DIN: 1023, VOUT: 1, DOUT:  752
