lab1-filters/basic/vcd/iir_syn.vcd
$date
	Tue Nov 21 18:43:30 2023
$end
$version
	QuestaSim Version 2020.4
$end
$timescale
	1ns
$end

$scope module tb_iir $end

$scope module UUT $end
$var wire 1 ! A1 [9] $end
$var wire 1 " A1 [8] $end
$var wire 1 # A1 [7] $end
$var wire 1 $ A1 [6] $end
$var wire 1 % A1 [5] $end
$var wire 1 & A1 [4] $end
$var wire 1 ' A1 [3] $end
$var wire 1 ( A1 [2] $end
$var wire 1 ) A1 [1] $end
$var wire 1 * A1 [0] $end
$var wire 1 + B0 [9] $end
$var wire 1 , B0 [8] $end
$var wire 1 - B0 [7] $end
$var wire 1 . B0 [6] $end
$var wire 1 / B0 [5] $end
$var wire 1 0 B0 [4] $end
$var wire 1 1 B0 [3] $end
$var wire 1 2 B0 [2] $end
$var wire 1 3 B0 [1] $end
$var wire 1 4 B0 [0] $end
$var wire 1 5 B1 [9] $end
$var wire 1 6 B1 [8] $end
$var wire 1 7 B1 [7] $end
$var wire 1 8 B1 [6] $end
$var wire 1 9 B1 [5] $end
$var wire 1 : B1 [4] $end
$var wire 1 ; B1 [3] $end
$var wire 1 < B1 [2] $end
$var wire 1 = B1 [1] $end
$var wire 1 > B1 [0] $end
$var wire 1 ? X [9] $end
$var wire 1 @ X [8] $end
$var wire 1 A X [7] $end
$var wire 1 B X [6] $end
$var wire 1 C X [5] $end
$var wire 1 D X [4] $end
$var wire 1 E X [3] $end
$var wire 1 F X [2] $end
$var wire 1 G X [1] $end
$var wire 1 H X [0] $end
$var wire 1 I Y [9] $end
$var wire 1 J Y [8] $end
$var wire 1 K Y [7] $end
$var wire 1 L Y [6] $end
$var wire 1 M Y [5] $end
$var wire 1 N Y [4] $end
$var wire 1 O Y [3] $end
$var wire 1 P Y [2] $end
$var wire 1 Q Y [1] $end
$var wire 1 R Y [0] $end
$var wire 1 S CLK $end
$var wire 1 T RST_N $end
$var wire 1 U VIN $end
$var wire 1 V VOUT $end
$var wire 1 W vin_d1 $end
$var wire 1 X fb_19_ $end
$var wire 1 Y fb_18_ $end
$var wire 1 Z fb_17_ $end
$var wire 1 [ fb_16_ $end
$var wire 1 \ fb_15_ $end
$var wire 1 ] fb_14_ $end
$var wire 1 ^ fb_13_ $end
$var wire 1 _ n121 $end
$var wire 1 ` n122 $end
$var wire 1 a n123 $end
$var wire 1 b n124 $end
$var wire 1 c n125 $end
$var wire 1 d n126 $end
$var wire 1 e n127 $end
$var wire 1 f n128 $end
$var wire 1 g a1_out [9] $end
$var wire 1 h a1_out [8] $end
$var wire 1 i a1_out [7] $end
$var wire 1 j a1_out [6] $end
$var wire 1 k a1_out [5] $end
$var wire 1 l a1_out [4] $end
$var wire 1 m a1_out [3] $end
$var wire 1 n a1_out [2] $end
$var wire 1 o a1_out [1] $end
$var wire 1 p a1_out [0] $end
$var wire 1 q b0_out [9] $end
$var wire 1 r b0_out [8] $end
$var wire 1 s b0_out [7] $end
$var wire 1 t b0_out [6] $end
$var wire 1 u b0_out [5] $end
$var wire 1 v b0_out [4] $end
$var wire 1 w b0_out [3] $end
$var wire 1 x b0_out [2] $end
$var wire 1 y b0_out [1] $end
$var wire 1 z b0_out [0] $end
$var wire 1 { b1_out [9] $end
$var wire 1 | b1_out [8] $end
$var wire 1 } b1_out [7] $end
$var wire 1 ~ b1_out [6] $end
$var wire 1 !! b1_out [5] $end
$var wire 1 "! b1_out [4] $end
$var wire 1 #! b1_out [3] $end
$var wire 1 $! b1_out [2] $end
$var wire 1 %! b1_out [1] $end
$var wire 1 &! b1_out [0] $end
$var wire 1 '! x_d1 [9] $end
$var wire 1 (! x_d1 [8] $end
$var wire 1 )! x_d1 [7] $end
$var wire 1 *! x_d1 [6] $end
$var wire 1 +! x_d1 [5] $end
$var wire 1 ,! x_d1 [4] $end
$var wire 1 -! x_d1 [3] $end
$var wire 1 .! x_d1 [2] $end
$var wire 1 /! x_d1 [1] $end
$var wire 1 0! x_d1 [0] $end
$var wire 1 1! sn [10] $end
$var wire 1 2! sn [9] $end
$var wire 1 3! sn [8] $end
$var wire 1 4! sn [7] $end
$var wire 1 5! sn [6] $end
$var wire 1 6! sn [5] $end
$var wire 1 7! sn [4] $end
$var wire 1 8! sn [3] $end
$var wire 1 9! sn [2] $end
$var wire 1 :! sn [1] $end
$var wire 1 ;! sn [0] $end
$var wire 1 <! sn_d1 [10] $end
$var wire 1 =! sn_d1 [9] $end
$var wire 1 >! sn_d1 [8] $end
$var wire 1 ?! sn_d1 [7] $end
$var wire 1 @! sn_d1 [6] $end
$var wire 1 A! sn_d1 [5] $end
$var wire 1 B! sn_d1 [4] $end
$var wire 1 C! sn_d1 [3] $end
$var wire 1 D! sn_d1 [2] $end
$var wire 1 E! sn_d1 [1] $end
$var wire 1 F! sn_d1 [0] $end
$var wire 1 G! ff [18] $end
$var wire 1 H! ff [17] $end
$var wire 1 I! ff [16] $end
$var wire 1 J! ff [15] $end
$var wire 1 K! ff [14] $end
$var wire 1 L! ff [13] $end
$var wire 1 M! wb [18] $end
$var wire 1 N! wb [17] $end
$var wire 1 O! wb [16] $end
$var wire 1 P! wb [15] $end
$var wire 1 Q! wb [14] $end
$var wire 1 R! wb [13] $end
$var wire 1 S! y_ext [9] $end
$var wire 1 T! y_ext [8] $end
$var wire 1 U! y_ext [7] $end
$var wire 1 V! y_ext [6] $end
$var wire 1 W! y_ext [5] $end
$var wire 1 X! y_ext [4] $end
$var wire 1 Y! add_237_carry [9] $end
$var wire 1 Z! add_237_carry [8] $end
$var wire 1 [! add_237_carry [7] $end
$var wire 1 \! add_237_carry [6] $end
$var wire 1 ]! add_237_carry [5] $end
$upscope $end
$upscope $end
$enddefinitions $end
#0
$dumpvars
0S
0T
xH
xG
xF
xE
xD
xC
xB
xA
x@
x?
14
13
12
01
10
0/
1.
1-
0,
0+
1>
1=
1<
0;
1:
09
18
17
06
05
0*
1)
0(
0'
1&
0%
1$
0#
0"
0!
0R
0Q
0P
0O
0N
0M
0L
0K
0J
0I
xU
0V
0W
0X
0Y
0Z
0[
0\
0]
0^
0_
0`
0a
0b
0c
0d
0e
0f
0p
0o
0n
0m
0l
0k
0j
0i
0h
0g
0z
0y
0x
0w
0v
0u
0t
0s
0r
0q
0&!
0%!
0$!
0#!
0"!
0!!
0~
0}
0|
0{
00!
0/!
0.!
0-!
0,!
0+!
0*!
0)!
0(!
0'!
0;!
0:!
09!
08!
07!
06!
05!
04!
03!
02!
01!
0F!
0E!
0D!
0C!
0B!
0A!
0@!
0?!
0>!
0=!
0<!
0L!
0K!
0J!
0I!
0H!
0G!
0R!
0Q!
0P!
0O!
0N!
0M!
0X!
0W!
0V!
0U!
0T!
0S!
0]!
0\!
0[!
0Z!
0Y!
$end
#6
xS
xf
#10
0?
0@
0A
0B
0C
0D
0E
0F
0G
0H
0U
1S
#12
0S
0f
#18
1S
#24
0S
#30
1T
1e
1d
1_
1`
1c
1a
1b
1S
1%!
1&!
1s
1t
1v
1x
1y
1z
1}
1~
1"!
1$!
1j
1l
1o
1N!
1H!
0N!
1Y!
1M!
0H!
1G!
0Y!
1S!
1L!
0S!
0M!
1R!
0G!
1^
1K!
1]!
1Q!
17!
1]
1W!
1\!
1J!
1P!
16!
1\
1V!
1[!
1I!
1O!
15!
1[
1U!
1Z!
1H!
0L!
1N!
0R!
14!
1Z
1T!
1Y!
0]!
0K!
0Q!
1R!
1L!
13!
1Y
1S!
1G!
0W!
0\!
0J!
1M!
0P!
1Q!
1]!
1K!
12!
0V!
0[!
0I!
0O!
1W!
1\!
1P!
1J!
0Q!
1X
0U!
0Z!
0H!
0N!
1V!
1[!
1I!
0W!
0P!
1Q!
11!
0T!
0Y!
1Z!
1H!
0V!
0Q!
1W!
1P!
1N!
0S!
0G!
0M!
1T!
1Y!
0W!
1V!
1O!
1Q!
0P!
0N!
1S!
1G!
1U!
1W!
0V!
0Q!
0T!
0O!
0R!
0S!
0^
0W!
1O!
0U!
1R!
0]!
1X!
0L!
07!
0]
1U!
1]!
0X!
1W!
0\!
0]!
1X!
0K!
06!
0\
0W!
1\!
1V!
0[!
1Q!
1W!
0\!
0J!
05!
0[
0V!
1[!
0U!
0R!
1N!
1P!
0O!
1V!
0[!
0I!
04!
0Z
0X!
0Q!
1T!
1O!
0N!
1U!
0Z!
0H!
03!
0Y
1R!
0W!
0P!
1M!
1N!
0T!
1T!
0Y!
02!
1X!
1Q!
0V!
0O!
1S!
0M!
0G!
0Q!
0X
1W!
1P!
0U!
0N!
1M!
0R!
0W!
1Q!
01!
1V!
0T!
0X!
1W!
1O!
0M!
1U!
0Q!
1N!
0S!
1R!
0W!
1Q!
1T!
0N!
1M!
1X!
0Q!
1W!
0O!
0T!
1N!
1S!
0W!
0U!
1T!
0R!
1R!
0X!
1X!
1Q!
0N!
0P!
1O!
0R!
1W!
1P!
0T!
0V!
0O!
1U!
1N!
0X!
0Q!
1V!
1O!
0M!
0U!
0N!
1T!
0W!
0P!
1U!
1N!
0S!
0T!
1M!
0V!
0O!
1T!
1R!
0M!
1S!
0U!
0N!
1M!
1X!
1Q!
0S!
0R!
0T!
1S!
1W!
1P!
0X!
0Q!
0M!
1V!
1O!
0W!
0P!
0S!
1U!
1N!
0V!
0O!
1T!
0U!
0N!
1M!
0T!
1S!
0M!
0S!
#36
0S
#42
1S
#48
0S
#52
1U
#54
1S
1W
#60
0S
#64
1A
1D
1E
1F
1G
#66
1S
1f
1/!
1)!
1,!
1-!
1.!
1V
1:!
19!
18!
14!
17!
1P!
1O!
1V!
0O!
1U!
1R!
0U!
1X!
1Q!
0R!
1W!
0P!
1R!
0X!
0Q!
0V!
0R!
1X!
1Q!
0W!
1P!
0X!
0Q!
1W!
0P!
1V!
0W!
1P!
0V!
1V!
#72
0S
0f
#76
0A
0D
0E
0F
0G
#78
1S
1f
0/!
0)!
0,!
0-!
0.!
1E!
1D!
1C!
1?!
1B!
1L
0:!
09!
08!
04!
07!
1J!
1I!
0P!
1O!
0V!
1[!
0I!
1U!
1L!
1^
1]
1\
1V!
0[!
0O!
0U!
1Z!
1N!
1R!
1Q!
1X!
1K!
17!
0]
16!
0\
15!
0L!
0Z!
0N!
1Y!
1\!
0R!
0J!
06!
05!
1L!
0K!
0Y!
1S!
1M!
1P!
0Q!
0L!
1K!
1W!
0\!
1J!
0M!
0V!
1[!
1O!
0P!
0X!
0K!
1L!
0J!
1R!
0S!
1Z!
1N!
0R!
0[!
0O!
0L!
0W!
1J!
1K!
1]!
1Q!
1Y!
0]!
0Q!
0Z!
0N!
0K!
1V!
1W!
1\!
0J!
1R!
1S!
1M!
0W!
0\!
0Y!
1J!
0R!
1Q!
1X!
0M!
0X!
0Q!
1W!
1P!
1R!
0S!
0W!
0P!
0V!
1[!
1O!
0R!
1X!
1V!
0[!
0O!
1Z!
1N!
0X!
0Z!
0N!
1Y!
0Y!
1S!
1M!
0M!
0S!
#84
0S
0f
#88
1@
1A
1D
1E
1F
1G
#90
1S
1f
1/!
1(!
1)!
1,!
1-!
1.!
0E!
0D!
0C!
0?!
1:!
19!
18!
13!
14!
07!
16!
0J!
1I!
1N!
1P!
0V!
0I!
1U!
1H!
1L!
1K!
0^
1]
1\
1Y!
0P!
1V!
1R!
0U!
0H!
1X!
0K!
1W!
17!
0]
06!
15!
1[
1S!
0V!
1O!
0N!
1]!
0X!
1Q!
1P!
1T!
0Y!
1G!
0W!
0\
05!
04!
1Z
1U!
0T!
1\!
0P!
1V!
0L!
0G!
0[
14!
1Y
0]!
1X!
0S!
0Z
1^
1W!
0\!
0^
0Y
11!
1X
07!
1]
0V!
17!
0]
0R!
1P!
01!
1\
0\
11!
0X
0X!
0Q!
1V!
0O!
0P!
1R!
1[
0[
01!
0W!
0U!
0V!
1O!
1X!
1M!
1Z
0Z
1U!
0R!
1N!
1S!
0M!
1Y
0Y
1M!
0X!
1Q!
1T!
1P!
1R!
0S!
1S!
0M!
1W!
1V!
0O!
1X!
11!
1X
0X
0N!
1M!
0S!
0P!
0U!
01!
0M!
0T!
1S!
1P!
0V!
0S!
1N!
0R!
1V!
1M!
0P!
1T!
0X!
1S!
0V!
1O!
0M!
0N!
1P!
1R!
1U!
0S!
1M!
0R!
0T!
0P!
1V!
1X!
1N!
1S!
0X!
0Q!
0V!
1T!
0M!
0O!
1Q!
0W!
1M!
0S!
1O!
0U!
0N!
1W!
1S!
1U!
0T!
0M!
0S!
1R!
0R!
1X!
0X!
#96
0S
0f
#100
0@
0A
0D
0E
0F
0G
#102
1S
1f
0/!
0(!
0)!
0,!
0-!
0.!
1E!
1D!
1C!
1?!
1>!
1M
1K
0L
0:!
09!
08!
03!
04!
07!
1J!
1H!
0O!
1N!
1P!
1V!
1L!
1T!
0J!
1\
1[
0U!
0N!
0T!
1Y!
0P!
1O!
1R!
0L!
0H!
1X!
1I!
15!
0[
14!
0Y!
1S!
1M!
0V!
0O!
1Z!
1N!
1K!
04!
0M!
1U!
0Z!
0N!
1P!
1Y!
0W!
1\!
0Y!
1[!
1O!
1M!
0R!
0M!
1Z!
1N!
1R!
1L!
0P!
0O!
0X!
0Q!
0S!
1Y!
1]!
0L!
1O!
1V!
0[!
0U!
0N!
1W!
0\!
1S!
1M!
0W!
1\!
0]!
1X!
0O!
1N!
0R!
1P!
1T!
0Y!
0V!
1[!
1W!
0\!
1R!
1U!
0Z!
0N!
0T!
1Y!
0X!
1Q!
0P!
0M!
0U!
1Z!
0[!
1X!
0Q!
0Y!
1M!
0W!
1\!
1T!
1U!
0Z!
1W!
0\!
0M!
1V!
0R!
0T!
0V!
1R!
0S!
0X!
1Q!
1X!
0Q!
0W!
1\!
1W!
0\!
1V!
0V!
#108
0S
0f
#112
1@
1A
1B
1C
1D
1E
1F
1G
1H
#114
1S
1f
1/!
1(!
1)!
1,!
1-!
1.!
10!
1+!
1*!
0E!
0D!
0C!
0?!
0>!
0B!
1@!
1N
1;!
1:!
19!
18!
13!
14!
17!
16!
05!
04!
03!
12!
1J!
0I!
1H!
1N!
1P!
1V!
1I!
1L!
0K!
1^
0U!
0H!
1T!
0\
1[
0R!
0V!
1[!
1U!
1H!
1]!
0X!
0W!
0I!
07!
1G!
15!
0[
14!
1Z
0]!
1X!
1O!
0T!
1Y!
1W!
0J!
0H!
06!
0^
0G!
1S!
0Z
13!
1Y
0W!
0P!
1R!
0U!
1Z!
1Q!
0N!
1G!
1V!
0[!
1T!
0Y!
05!
17!
0Y
02!
0V!
0O!
1]!
0X!
0Q!
1W!
1U!
0Z!
0G!
04!
16!
11!
1X
0U!
1N!
0R!
1Q!
0T!
0S!
03!
15!
0X
1T!
0]!
1X!
0W!
1\!
12!
14!
01!
1O!
1W!
0\!
1V!
0Q!
1P!
1R!
13!
1U!
0N!
1M!
0W!
0O!
1]!
0X!
02!
0R!
0T!
0M!
1Q!
1S!
0U!
0Q!
1\!
0]!
1X!
0S!
0\!
1Q!
0V!
1[!
1R!
1V!
0[!
1N!
0Q!
1W!
1M!
1U!
1]!
0X!
0U!
1T!
0W!
1S!
0N!
1W!
0R!
0T!
1N!
0]!
1X!
1Q!
1O!
0M!
1T!
0P!
1P!
1U!
0N!
0S!
0Q!
0V!
1R!
1V!
0T!
0W!
1]!
0X!
1W!
#120
0S
0f
#124
0U
#126
1S
1f
0W
1E!
1D!
1C!
1?!
1>!
1B!
1A!
1F!
0N
1L
1J!
1H!
0V!
1[!
1I!
1^
1T!
1K!
0J!
1\
1[
1Z!
0H!
07!
1]
0W!
1\!
1V!
0[!
0K!
05!
0[
04!
0\
0V!
1[!
0U!
1W!
0\!
1J!
0L!
03!
0^
0]
1U!
0]!
1X!
12!
17!
06!
1\
1^
1L!
0W!
0^
16!
15!
07!
1]!
0X!
0P!
0O!
17!
05!
06!
1^
1W!
1Q!
1V!
0[!
0U!
0R!
1N!
16!
15!
07!
0W!
1\!
1P!
1U!
0Z!
0]!
1X!
0T!
1Y!
05!
06!
1[!
1O!
1T!
0Y!
1W!
0\!
1S!
0Q!
15!
1Z!
0N!
0S!
0V!
0P!
0W!
1R!
1Q!
1V!
0[!
0O!
1]!
0X!
0Q!
1W!
0R!
0Z!
1N!
1Q!
1P!
0]!
1X!
0Q!
0P!
1R!
0V!
1[!
1O!
0R!
0W!
1P!
1V!
0[!
0O!
1]!
0X!
1Q!
1Z!
0N!
0]!
1X!
1R!
0Q!
0V!
1[!
1O!
0Z!
1N!
1\!
0\!
1]!
0X!
1Q!
0P!
1Z!
0N!
1V!
0[!
0R!
1\!
1P!
0O!
0Z!
0]!
1X!
0Q!
1[!
1O!
1N!
1R!
0\!
0P!
1Z!
0N!
1]!
0X!
1Q!
0[!
0O!
1\!
1P!
0Z!
1N!
1[!
1O!
1Z!
0N!
#132
0S
0f
#136
1?
1U
#138
1S
1W
1'!
1J
0V
0M
02!
11!
01!
1M!
0M!
1S!
1M!
1N!
0Q!
0P!
0S!
1S!
0T!
1Y!
1W!
0\!
1P!
0V!
1Q!
0M!
0W!
1\!
0P!
1M!
0Q!
0O!
1Q!
0S!
1W!
0\!
0U!
0N!
0W!
1\!
0Q!
1V!
0[!
1T!
0Y!
0V!
1[!
0R!
1W!
0\!
1U!
0Z!
1S!
0M!
0U!
1Z!
0]!
1X!
1Q!
1V!
0[!
0T!
0S!
1T!
1U!
0Z!
0T!
#144
0S
#148
0?
0B
0C
0H
#150
1S
1f
00!
0'!
0+!
0*!
0A!
0?!
0>!
0B!
1N
0J
1V
1M
0;!
12!
11!
16!
05!
01!
15!
14!
1M!
13!
0J!
1H!
0M!
1S!
02!
0V!
0I!
0^
1T!
1K!
1J!
0\
1[
1R!
0S!
1O!
1N!
0Q!
1P!
0U!
0H!
17!
1]
1G!
0W!
1\!
0J!
1V!
0L!
0K!
05!
0[
04!
1Z
1Q!
0P!
0N!
1M!
1U!
0\!
0V!
1[!
1^
0]
1S!
1K!
14!
0Z
1Y
1\!
0[!
0T!
0S!
0Q!
0R!
0U!
1Z!
07!
06!
0^
0G!
0Y
1V!
1U!
0Z!
0M!
1W!
0\!
1P!
1R!
0X!
1Q!
1T!
16!
17!
1S!
1L!
11!
1X
0T!
0S!
0Q!
0W!
1\!
1M!
1N!
06!
1]!
0K!
0X
0M!
1W!
0\!
0V!
1[!
0O!
1S!
0N!
1T!
0L!
1Q!
01!
0S!
1V!
0[!
1O!
0T!
0R!
0]!
1X!
1K!
0W!
1\!
0P!
1M!
0Q!
1P!
0X!
1N!
1S!
1Q!
1R!
1W!
0\!
0V!
1[!
0O!
0M!
0N!
1T!
0W!
1\!
1X!
1V!
0[!
0R!
0S!
0T!
1M!
0P!
1O!
0Q!
0X!
1N!
1P!
1R!
1S!
1W!
0\!
0R!
1T!
0M!
0P!
0O!
1Q!
1X!
0X!
1R!
1M!
0S!
0V!
1O!
0U!
0N!
0W!
1\!
1X!
1S!
1U!
0T!
0M!
1V!
0R!
0S!
0X!
#156
0S
0f
#160
1?
1B
1C
1H
#162
1S
1f
10!
1'!
1*!
1+!
0@!
0F!
1B!
1?!
1>!
0N
0M
1;!
12!
11!
15!
16!
1M!
1J!
1H!
1S!
0V!
1[!
1^
1T!
1\
1[
1N!
1P!
0H!
1L!
0U!
1Z!
0J!
07!
1]
05!
0[
04!
1R!
0T!
1Y!
0M!
0N!
0P!
0L!
1X!
1I!
0\
03!
1P!
1M!
1T!
0Y!
1N!
1V!
0[!
0O!
0^
1U!
02!
0V!
1[!
1O!
0M!
0T!
1Y!
0Z!
0N!
17!
0]
01!
1Z!
1N!
1M!
0Y!
1L!
1\
0P!
0O!
1Y!
0M!
1]!
0X!
0L!
1V!
0[!
0U!
0R!
0N!
1W!
0]!
1U!
0Z!
1T!
0Y!
0Q!
0\!
0T!
0S!
1Q!
1M!
1O!
1R!
0R!
0V!
0W!
1\!
1S!
0U!
1Z!
1N!
1X!
0X!
1R!
1V!
1Y!
0M!
0O!
0Q!
1P!
1X!
1M!
0R!
1U!
0Z!
0N!
1W!
0\!
0P!
0V!
1[!
1O!
0S!
0X!
0Y!
0[!
0O!
1Z!
1N!
1R!
1S!
0M!
0Z!
0N!
1Y!
1X!
0Y!
1M!
0M!
0S!
#168
0S
0f
#172
0?
0@
0B
0C
0H
#174
1S
1f
00!
0'!
0*!
0+!
0(!
1A!
1F!
0>!
0?!
0L
1N
1M
0;!
12!
11!
15!
06!
13!
01!
14!
02!
03!
1M!
0I!
1H!
1J!
0M!
1S!
1O!
1N!
0U!
0H!
1T!
0J!
0\
1[
1V!
1I!
1^
0R!
1Q!
0S!
1P!
1Z!
1L!
0^
1G!
0V!
0I!
05!
0[
04!
1Z
1H!
07!
0W!
1\!
0N!
1M!
1V!
1Y!
0K!
1]
17!
0G!
1S!
1U!
0Z!
0H!
0L!
14!
0Z
1Y
16!
0V!
1[!
1R!
0T!
0Y!
1N!
0S!
0O!
0P!
1W!
0\!
0]
0X!
0Y
1G!
1X!
0M!
1T!
0N!
1P!
0R!
0[!
06!
0G!
1L!
11!
1X
1M!
0T!
1V!
0U!
0X
0P!
1O!
1S!
0M!
1P!
01!
0V!
1U!
1N!
1R!
0Q!
0S!
1V!
0O!
0N!
1T!
1]!
0X!
0W!
1M!
0R!
0U!
0T!
0M!
1W!
1N!
1S!
0]!
1X!
0S!
1O!
1T!
0P!
0W!
1U!
1M!
0V!
1P!
0O!
1S!
1R!
1V!
0U!
0N!
1]!
0X!
1Q!
0T!
1\!
0P!
0R!
0M!
0]!
1X!
0Q!
0S!
0\!
1P!
#180
0S
0f
#184
1?
1@
1B
1C
1H
#186
1S
1f
10!
1'!
1*!
1+!
1(!
0A!
0F!
1?!
1L
0K
0M
1;!
12!
11!
15!
16!
13!
1M!
1J!
1I!
1S!
1O!
1N!
1K!
0V!
1[!
0I!
1U!
1^
1\
1R!
1Q!
0O!
0U!
1Z!
1T!
1W!
0J!
0L!
07!
0\
05!
0W!
1\!
0R!
0M!
1U!
0Z!
0N!
1O!
0P!
0T!
1Y!
1V!
0[!
0K!
06!
15!
04!
1P!
0X!
0Q!
1R!
1M!
0Y!
1N!
0O!
1L!
1W!
0\!
1J!
05!
14!
03!
0V!
1[!
1O!
0W!
0P!
1Q!
0R!
0M!
1T!
0U!
0N!
0L!
1]!
1K!
04!
13!
02!
1Z!
1N!
1V!
0[!
0O!
1W!
1\!
1P!
0]!
0Q!
0S!
1M!
0T!
0K!
0J!
03!
12!
01!
1Y!
0Z!
0N!
0V!
1[!
1R!
0W!
0\!
0P!
1S!
0M!
1J!
02!
11!
1Q!
1M!
0Y!
1U!
1X!
1V!
0[!
1O!
01!
1W!
1N!
0Q!
1T!
0N!
0W!
0M!
0T!
1M!
0O!
0S!
1Q!
1P!
0M!
1N!
0R!
1S!
0U!
0N!
1W!
0P!
0V!
1[!
1R!
0S!
1T!
0X!
0T!
1V!
0[!
1U!
1N!
1X!
1M!
1P!
0R!
0M!
0U!
0N!
1T!
1S!
0V!
1[!
1O!
0X!
0Q!
0S!
0T!
1M!
1Z!
1N!
1R!
0W!
0P!
0M!
0R!
1S!
1Y!
1X!
1Q!
1V!
0[!
0O!
0X!
0Q!
1M!
1W!
1P!
0Z!
0N!
0W!
0P!
0S!
0V!
1[!
1O!
0Y!
1V!
0[!
0O!
1Z!
1N!
1S!
0M!
0Z!
0N!
1Y!
0S!
0Y!
1S!
1M!
0M!
0S!
#192
0S
0f
#196
0A
0D
0E
0F
0G
#198
1S
1f
0/!
0.!
0-!
0,!
0)!
0B!
1F!
0?!
0N
0:!
09!
08!
17!
14!
16!
13!
15!
12!
04!
11!
0J!
1I!
1P!
1O!
0V!
0I!
1U!
1H!
1K!
0^
1]
1\
1V!
1R!
1N!
0K!
0H!
1T!
1W!
07!
0]
06!
05!
1[
1X!
1Q!
0O!
1M!
0W!
1G!
16!
0\
15!
1Z
0R!
1O!
1R!
1W!
0U!
0M!
0Q!
0G!
0[
1Y
0X!
1U!
0N!
1X!
0R!
0W!
0P!
0Z
1^
0T!
1R!
1N!
0X!
1M!
0V!
0^
0Y
01!
1X
17!
1]
0M!
1X!
1T!
1S!
07!
0]
0R!
11!
06!
1\
0S!
1R!
1M!
16!
0\
1Q!
1P!
01!
0X
0X!
1[
1X!
0Q!
1S!
0[
1W!
0P!
1V!
11!
0R!
0M!
1Z
0W!
1P!
0Z
0V!
0X!
0N!
0S!
1M!
1Y
1V!
0Y
0M!
0O!
1N!
0T!
0P!
1S!
0S!
1M!
0U!
1T!
0V!
1Q!
01!
1X
1R!
0Q!
0X
0N!
1S!
1W!
1X!
0W!
11!
0T!
1Q!
1P!
1W!
0P!
1V!
1O!
0V!
1U!
0R!
0M!
0X!
0Q!
0O!
1P!
0S!
0W!
0P!
0U!
1Q!
1V!
1R!
0V!
1W!
1O!
1X!
1U!
1N!
1T!
1M!
1S!
#204
0S
0f
#208
1A
1D
1E
1F
1G
#210
1S
1f
1/!
1.!
1-!
1,!
1)!
1<!
1=!
1@!
0E!
0D!
0C!
1A!
1>!
1I
1M
1J
1K
0L
1N
1:!
19!
18!
17!
14!
1G!
0S!
1Z
1Y
1I!
1H!
1P!
0O!
0I!
0Z
03!
02!
1L!
0U!
1Z!
0T!
1Y!
1]
1\
1[
0R!
1V!
1O!
0Z!
0N!
0G!
0H!
1I!
1J!
13!
0Y
12!
01!
0L!
1]!
0X!
1^
1T!
1S!
06!
05!
04!
0]!
1R!
1Z!
1N!
0T!
0Y!
1G!
0S!
1H!
0V!
1[!
1X
1Z
0^
1L!
0W!
1\!
07!
15!
14!
03!
1W!
0\!
1T!
1Y!
0M!
0G!
1U!
0X
13!
1Y
17!
1]!
1K!
1V!
16!
02!
0V!
1S!
1G!
0O!
12!
06!
1\!
0J!
0L!
0R!
1R!
0S!
0U!
1O!
1M!
1X
1L!
0]!
0K!
0Q!
0P!
1U!
0N!
0M!
0O!
0R!
1S!
11!
1]!
1K!
0\!
1J!
0W!
1\!
1M!
1Q!
1P!
1V!
0[!
1O!
0T!
0S!
0U!
0]!
1X!
0J!
1N!
0V!
1[!
1S!
0P!
0N!
0Q!
1T!
0O!
1V!
0[!
1Q!
0T!
1W!
0\!
1N!
1R!
1U!
0Z!
0W!
1\!
0M!
0V!
1O!
1T!
1]!
0X!
0Q!
0N!
0Y!
1V!
0S!
0U!
1Z!
1P!
0R!
1S!
1R!
0T!
1Y!
1Q!
0P!
0V!
1[!
0]!
1X!
1]!
0X!
0S!
1N!
1P!
1V!
0[!
0O!
1U!
1W!
1T!
0V!
1[!
1O!
0Z!
0N!
0R!
1M!
1Z!
1N!
0Y!
0]!
1X!
1R!
1Y!
0M!
0W!
1]!
0X!
1M!
1W!
1S!
#216
0S
0f
#220
0U
#222
1S
1f
0W
1?!
1B!
0A!
1E!
1D!
1C!
0N
1J!
0I!
1V!
1I!
0U!
0H!
0K!
1^
0]
0L!
1U!
1H!
0T!
0W!
1K!
07!
1]
16!
0\
0]!
1X!
1T!
0G!
1\
0[
1L!
1G!
0S!
1[
0Z
1]!
0X!
0L!
1S!
1Z
0Y
1W!
0]!
1X!
1Y
1L!
0W!
01!
0X
1]!
0X!
0Q!
0R!
1X
1W!
1R!
0W!
0P!
0]!
1X!
11!
1]!
0X!
1Q!
0V!
0O!
1W!
0\!
0M!
1\!
1P!
0U!
1V!
0[!
0S!
1[!
1O!
1U!
0Z!
1M!
0P!
0R!
1Z!
0M!
0T!
1S!
0V!
0]!
1X!
1T!
0S!
0N!
1R!
0W!
0T!
1M!
1]!
0X!
0M!
1S!
1N!
1P!
0O!
1W!
0S!
1T!
1V!
1O!
0U!
0N!
1M!
1U!
1N!
0T!
1S!
1T!
0M!
1M!
0S!
1S!
#228
0S
0f
#234
1S
0V
1L
#240
0S
#246
1S
#252
0S
#258
1S
#264
0S
#270
1S
#276
0S
#282
1S
#288
0S
#292
0@
0A
0D
0E
0F
0G
1U
#294
1S
0(!
0)!
0,!
0-!
0.!
0/!
1W
0:!
09!
08!
03!
04!
17!
06!
0N!
0P!
0T!
1P!
0V!
0Q!
1V!
0O!
1N!
0W!
0R!
1Q!
0P!
0U!
1T!
0]!
1X!
0Q!
1W!
0V!
0\!
1P!
1R!
1]!
0X!
0R!
0W!
1\!
0]!
1X!
1V!
1W!
0\!
0V!
#300
0S
#304
0U
#306
1S
1f
0W
0?!
0E!
0D!
0C!
0>!
1V
0L
0K
1N
0J!
0H!
1V!
0[!
0^
0T!
0K!
0]
0\
1U!
0Z!
1H!
07!
1^
1]
0W!
1J!
0I!
16!
1\
05!
17!
06!
0\
0V!
1[!
0U!
0L!
0^
1L!
1^
1U!
0X!
07!
0]
1X!
17!
1]
0L!
16!
1\
06!
0\
0X!
1R!
1O!
1X!
0O!
0U!
1Z!
0N!
0R!
1Q!
0P!
1U!
0Z!
1N!
1R!
0X!
1W!
1V!
0[!
1X!
0U!
0R!
0X!
1R!
1X!
0R!
0X!
1R!
1X!
0R!
0X!
1R!
1X!
#312
0S
0f
#318
1S
1L
0V
0J
#324
0S
#330
1S
#336
0S
#342
1S
#348
0S
#354
1S
#360
0S
#364
1@
1A
1D
1E
1F
1G
1U
#366
1S
1(!
1)!
1,!
1-!
1.!
1/!
1W
1:!
19!
18!
13!
14!
07!
16!
0N!
1P!
1T!
0Y!
0Q!
0P!
0V!
1[!
1O!
0S!
0M!
0W!
1P!
1V!
0[!
1Z!
1N!
0R!
1S!
0V!
1[!
1U!
0Z!
1Y!
0X!
1Q!
1R!
0U!
1Z!
0T!
0S!
1M!
1W!
1X!
0Q!
1T!
1S!
0R!
0W!
0X!
1Q!
1R!
1W!
1X!
0Q!
0W!
#372
0S
#376
0@
0A
0B
0C
0D
0E
0F
0G
0H
