lab1-filters/vcd/myiir_syn.vcd
$date
	Sun Nov  5 17:57:37 2023
$end
$version
	QuestaSim Version 2020.4
$end
$timescale
	1ns
$end

$scope module tb_iir $end

$scope module UUT $end
$var wire 1 ! A1 [9] $end
$var wire 1 " A1 [8] $end
$var wire 1 # A1 [7] $end
$var wire 1 $ A1 [6] $end
$var wire 1 % A1 [5] $end
$var wire 1 & A1 [4] $end
$var wire 1 ' A1 [3] $end
$var wire 1 ( A1 [2] $end
$var wire 1 ) A1 [1] $end
$var wire 1 * A1 [0] $end
$var wire 1 + B0 [9] $end
$var wire 1 , B0 [8] $end
$var wire 1 - B0 [7] $end
$var wire 1 . B0 [6] $end
$var wire 1 / B0 [5] $end
$var wire 1 0 B0 [4] $end
$var wire 1 1 B0 [3] $end
$var wire 1 2 B0 [2] $end
$var wire 1 3 B0 [1] $end
$var wire 1 4 B0 [0] $end
$var wire 1 5 B1 [9] $end
$var wire 1 6 B1 [8] $end
$var wire 1 7 B1 [7] $end
$var wire 1 8 B1 [6] $end
$var wire 1 9 B1 [5] $end
$var wire 1 : B1 [4] $end
$var wire 1 ; B1 [3] $end
$var wire 1 < B1 [2] $end
$var wire 1 = B1 [1] $end
$var wire 1 > B1 [0] $end
$var wire 1 ? X [9] $end
$var wire 1 @ X [8] $end
$var wire 1 A X [7] $end
$var wire 1 B X [6] $end
$var wire 1 C X [5] $end
$var wire 1 D X [4] $end
$var wire 1 E X [3] $end
$var wire 1 F X [2] $end
$var wire 1 G X [1] $end
$var wire 1 H X [0] $end
$var wire 1 I Y [9] $end
$var wire 1 J Y [8] $end
$var wire 1 K Y [7] $end
$var wire 1 L Y [6] $end
$var wire 1 M Y [5] $end
$var wire 1 N Y [4] $end
$var wire 1 O Y [3] $end
$var wire 1 P Y [2] $end
$var wire 1 Q Y [1] $end
$var wire 1 R Y [0] $end
$var wire 1 S CLK $end
$var wire 1 T RST_N $end
$var wire 1 U VIN $end
$var wire 1 V VOUT $end
$var wire 1 W vin_d1 $end
$var wire 1 X n1 $end
$var wire 1 Y n3 $end
$var wire 1 Z n4 $end
$var wire 1 [ n5 $end
$var wire 1 \ n6 $end
$var wire 1 ] n7 $end
$var wire 1 ^ n8 $end
$var wire 1 _ n9 $end
$var wire 1 ` n10 $end
$var wire 1 a n11 $end
$var wire 1 b n12 $end
$var wire 1 c n26 $end
$var wire 1 d n27 $end
$var wire 1 e n28 $end
$var wire 1 f n29 $end
$var wire 1 g n30 $end
$var wire 1 h n31 $end
$var wire 1 i n32 $end
$var wire 1 j n33 $end
$var wire 1 k n34 $end
$var wire 1 l n35 $end
$var wire 1 m n36 $end
$var wire 1 n n37 $end
$var wire 1 o n38 $end
$var wire 1 p n39 $end
$var wire 1 q n40 $end
$var wire 1 r n41 $end
$var wire 1 s n42 $end
$var wire 1 t n43 $end
$var wire 1 u n44 $end
$var wire 1 v n45 $end
$var wire 1 w n46 $end
$var wire 1 x n47 $end
$var wire 1 y n48 $end
$var wire 1 z n49 $end
$var wire 1 { n50 $end
$var wire 1 | n51 $end
$var wire 1 } n52 $end
$var wire 1 ~ n53 $end
$var wire 1 !! n54 $end
$var wire 1 "! n55 $end
$var wire 1 #! n56 $end
$var wire 1 $! n57 $end
$var wire 1 %! n58 $end
$var wire 1 &! n59 $end
$var wire 1 '! n60 $end
$var wire 1 (! n61 $end
$var wire 1 )! n62 $end
$var wire 1 *! n63 $end
$var wire 1 +! n64 $end
$var wire 1 ,! n65 $end
$var wire 1 -! n66 $end
$var wire 1 .! n67 $end
$var wire 1 /! n68 $end
$var wire 1 0! n69 $end
$var wire 1 1! n70 $end
$var wire 1 2! n71 $end
$var wire 1 3! n72 $end
$var wire 1 4! n73 $end
$var wire 1 5! n74 $end
$var wire 1 6! n75 $end
$var wire 1 7! n76 $end
$var wire 1 8! n77 $end
$var wire 1 9! n78 $end
$var wire 1 :! n79 $end
$var wire 1 ;! n80 $end
$var wire 1 <! n81 $end
$var wire 1 =! n82 $end
$var wire 1 >! n83 $end
$var wire 1 ?! n84 $end
$var wire 1 @! n85 $end
$var wire 1 A! n86 $end
$var wire 1 B! n87 $end
$var wire 1 C! n88 $end
$var wire 1 D! n89 $end
$var wire 1 E! n90 $end
$var wire 1 F! n91 $end
$var wire 1 G! a1_out [9] $end
$var wire 1 H! a1_out [8] $end
$var wire 1 I! a1_out [7] $end
$var wire 1 J! a1_out [6] $end
$var wire 1 K! a1_out [5] $end
$var wire 1 L! a1_out [4] $end
$var wire 1 M! b0_out [9] $end
$var wire 1 N! b0_out [8] $end
$var wire 1 O! b0_out [7] $end
$var wire 1 P! b0_out [6] $end
$var wire 1 Q! b0_out [5] $end
$var wire 1 R! b0_out [4] $end
$var wire 1 S! b0_out [3] $end
$var wire 1 T! b0_out [2] $end
$var wire 1 U! b0_out [1] $end
$var wire 1 V! b0_out [0] $end
$var wire 1 W! b1_out [9] $end
$var wire 1 X! b1_out [8] $end
$var wire 1 Y! b1_out [7] $end
$var wire 1 Z! b1_out [6] $end
$var wire 1 [! b1_out [5] $end
$var wire 1 \! b1_out [4] $end
$var wire 1 ]! b1_out [3] $end
$var wire 1 ^! b1_out [2] $end
$var wire 1 _! b1_out [1] $end
$var wire 1 `! b1_out [0] $end
$var wire 1 a! x_d1 [9] $end
$var wire 1 b! x_d1 [8] $end
$var wire 1 c! x_d1 [7] $end
$var wire 1 d! x_d1 [6] $end
$var wire 1 e! x_d1 [5] $end
$var wire 1 f! x_d1 [4] $end
$var wire 1 g! x_d1 [3] $end
$var wire 1 h! x_d1 [2] $end
$var wire 1 i! x_d1 [1] $end
$var wire 1 j! x_d1 [0] $end
$var wire 1 k! sn [10] $end
$var wire 1 l! sn [9] $end
$var wire 1 m! sn [8] $end
$var wire 1 n! sn [7] $end
$var wire 1 o! sn [6] $end
$var wire 1 p! sn [5] $end
$var wire 1 q! sn [4] $end
$var wire 1 r! sn [3] $end
$var wire 1 s! sn [2] $end
$var wire 1 t! sn [1] $end
$var wire 1 u! sn [0] $end
$var wire 1 v! sn_d1 [10] $end
$var wire 1 w! sn_d1 [9] $end
$var wire 1 x! sn_d1 [8] $end
$var wire 1 y! sn_d1 [7] $end
$var wire 1 z! sn_d1 [6] $end
$var wire 1 {! sn_d1 [5] $end
$var wire 1 |! sn_d1 [4] $end
$var wire 1 }! sn_d1 [3] $end
$var wire 1 ~! sn_d1 [2] $end
$var wire 1 !" sn_d1 [1] $end
$var wire 1 "" sn_d1 [0] $end
$var wire 1 #" fb [19] $end
$var wire 1 $" fb [18] $end
$var wire 1 %" fb [17] $end
$var wire 1 &" fb [16] $end
$var wire 1 '" fb [15] $end
$var wire 1 (" fb [14] $end
$var wire 1 )" fb [13] $end
$var wire 1 *" ff [18] $end
$var wire 1 +" ff [17] $end
$var wire 1 ," ff [16] $end
$var wire 1 -" ff [15] $end
$var wire 1 ." ff [14] $end
$var wire 1 /" ff [13] $end
$var wire 1 0" wb [18] $end
$var wire 1 1" wb [17] $end
$var wire 1 2" wb [16] $end
$var wire 1 3" wb [15] $end
$var wire 1 4" wb [14] $end
$var wire 1 5" wb [13] $end
$var wire 1 6" y_ext [9] $end
$var wire 1 7" y_ext [8] $end
$var wire 1 8" y_ext [7] $end
$var wire 1 9" y_ext [6] $end
$var wire 1 :" y_ext [5] $end
$var wire 1 ;" y_ext [4] $end
$var wire 1 <" add_212_carry [9] $end
$var wire 1 =" add_212_carry [8] $end
$var wire 1 >" add_212_carry [7] $end
$var wire 1 ?" add_212_carry [6] $end
$var wire 1 @" add_212_carry [5] $end
$upscope $end
$upscope $end
$enddefinitions $end
#0
$dumpvars
0S
0T
xH
xG
xF
xE
xD
xC
xB
xA
x@
x?
14
13
12
01
10
0/
1.
1-
0,
0+
1>
1=
1<
0;
1:
09
18
17
06
05
0*
1)
0(
0'
1&
0%
1$
0#
0"
0!
0R
0Q
0P
0O
0N
0M
0L
0K
0J
0I
xU
0V
0W
1X
1Y
1Z
1[
1\
1]
1^
1_
1`
1a
1b
1c
1d
0e
0f
1g
0h
1i
0j
0k
1l
1m
1n
0o
1p
0q
0r
0s
1t
0u
0v
1w
0x
0y
0z
0{
0|
1}
1~
1!!
1"!
0#!
0$!
0%!
0&!
1'!
1(!
1)!
1*!
1+!
1,!
0-!
0.!
1/!
00!
01!
12!
03!
04!
05!
06!
07!
08!
09!
0:!
0;!
0<!
0=!
0>!
0?!
0@!
0A!
0B!
0C!
0D!
0E!
0F!
0L!
zK!
0J!
0I!
0H!
0G!
0V!
0U!
0T!
0S!
0R!
0Q!
0P!
0O!
0N!
0M!
0`!
0_!
0^!
0]!
0\!
0[!
0Z!
0Y!
0X!
0W!
0j!
0i!
0h!
0g!
0f!
0e!
0d!
0c!
0b!
0a!
0u!
0t!
0s!
0r!
0q!
0p!
0o!
0n!
0m!
0l!
0k!
0""
0!"
0~!
0}!
0|!
0{!
0z!
0y!
0x!
0w!
0v!
0)"
0("
0'"
0&"
0%"
0$"
0#"
0/"
0."
0-"
0,"
0+"
0*"
05"
04"
03"
02"
01"
00"
0;"
0:"
09"
08"
07"
06"
0@"
0?"
0>"
0="
0<"
$end
#10
0?
0@
0A
0B
0C
0D
0E
0F
0G
0H
0U
#50
1S
#100
0S
#150
1S
#200
0S
#250
1T
1;!
1:!
15!
16!
14!
19!
17!
18!
1S
1_!
1`!
1O!
1P!
1R!
1T!
1U!
1V!
1Y!
1Z!
1\!
1^!
02!
1J!
1L!
13!
1+"
11"
0+"
0d
1*"
01"
1r
10"
15"
1d
17"
0i
1/"
0r
0d
14"
1z
07"
0*"
1@"
1."
00"
1d
17"
1f
04"
05"
1i
0n
1-"
07"
1:"
13"
0f
0@"
0z
1?"
1|
1,"
0~
1o
0:"
03"
1n
1k
1;"
1)"
0!!
1e
1&!
1+"
0/"
12"
1>"
1y
1~
0o
14"
0?"
1:"
15"
1("
1q!
0|
18"
0d
0;"
0."
0)!
1j
0'!
0(!
1v
02"
19"
0m
1f
1!!
0e
1z
04"
1/"
1p!
09"
17"
1*"
1m
0k
0-"
1="
1$!
0&!
11"
08"
1)!
1'!
0j
1?"
0:"
13"
0>"
0y
1|
14"
0f
1@"
1."
1'"
0i
0?"
0|
0,"
0+!
1s
18"
0,!
0*!
1r
1&!
01"
1e
0}
1o
1(!
0v
19"
1f
03"
0l
0n
0m
1-"
16"
1}
0e
0&!
0+"
1<"
07"
1d
1,!
1*!
0r
12"
1>"
1y
0="
0$!
1:"
13"
0o
1?"
1,"
1&"
1o!
0>"
0y
1|
08"
1+!
1i
17"
10"
1j
0'!
1v
0s
0~
1o
02"
09"
0!!
0}
1e
0)!
0(!
1&!
1+"
1n!
1'!
1(!
0v
0<"
0*"
00"
0&!
11"
1="
1$!
07"
12"
1>"
1y
1)!
0j
0|
0d
1%"
06"
0,!
1r
0+!
0*!
1s
0)!
1j
0'!
0(!
1v
0="
0$!
1&!
01"
19"
17"
1*"
1<"
1d
07"
1="
1$!
0&!
11"
1+!
1*!
0s
1,!
0r
0i
1m!
1$"
05"
04"
0/"
1i
10"
0+!
1s
18"
0,!
0*!
1r
0<"
0d
16"
1.!
1l!
0@"
0z
03"
1m
1l
0f
0."
1<"
1d
0i
00"
11!
1n
1k
1~
1}
0o
0:"
0k
0-"
1i
17"
10"
1#"
14"
0?"
1:"
09"
15"
0:"
1!!
1|
0,"
0)"
01"
04"
1k!
13"
1f
0e
1z
05"
0>"
0y
19"
1)!
1(!
1&!
0+"
0("
0q!
1,!
1*!
0r
0f
1-!
1o
1:"
0|
1;"
14"
0z
1'!
0v
08"
1+!
0p!
0:"
11"
04"
1f
0;"
0="
0$!
18"
0<"
0*"
0'"
15"
00"
0*!
1r
03"
0f
1:"
1*!
0s
1z
06"
1<"
0d
0o
0:"
0<"
0&"
0o!
1;"
0i
09"
14"
10"
02"
01"
13"
1i
0n!
00"
03"
1f
12"
11"
0j
0r
1o
0%"
13"
0o
1:"
04"
1j
1r
0&!
10"
1d
19"
01"
03"
1o
02"
09"
0f
1&!
0d
08"
16"
07"
0m!
0$"
05"
14"
12"
0r
00"
0o
19"
0j
0:"
18"
17"
0.!
0l!
04"
0z
13"
1f
1j
1d
06"
02"
09"
0&!
11"
01!
14"
0f
0;"
1o
1:"
1&!
07"
0j
08"
1r
0#"
04"
1f
0:"
19"
18"
0&!
01"
0d
11"
14"
0k!
0f
1:"
03"
15"
08"
0r
17"
10"
05"
1r
1f
0-!
0:"
0o
1z
1d
16"
04"
0z
0d
1:"
01"
09"
1;"
07"
00"
0f
0;"
17"
10"
0r
14"
13"
06"
0:"
16"
1d
03"
1f
1o
07"
0o
1:"
19"
00"
12"
11"
09"
10"
13"
02"
15"
06"
01"
1j
1r
16"
05"
03"
1o
0j
04"
1z
0r
1&!
00"
0d
11"
14"
0z
13"
0o
12"
19"
0&!
0f
1;"
1d
18"
06"
17"
04"
02"
1r
10"
1f
0;"
1o
09"
1j
08"
0:"
07"
0f
12"
0j
0d
16"
1:"
03"
19"
1&!
01"
0:"
1j
0&!
17"
0o
18"
0r
1&!
11"
08"
02"
09"
1d
18"
1r
0j
07"
00"
0d
0&!
01"
06"
17"
10"
08"
0r
16"
1d
07"
00"
06"
#300
0S
#350
1S
#360
1U
#400
0S
#450
1S
0c
1W
#460
1A
1D
1E
1F
1G
#500
0S
#550
1S
1i!
1c!
1f!
1g!
1h!
1V
1t!
1s!
1r!
1n!
1q!
0a
0`
0_
0[
0^
1>!
1=!
1<!
1B!
1E!
13"
12"
02"
1o
1j
15"
0j
19"
1&!
14"
1z
0&!
18"
1f
1;"
08"
1:"
03"
05"
0o
04"
0z
09"
0f
0;"
0:"
13"
14"
1o
04"
1f
19"
0f
1:"
03"
0:"
13"
0o
1o
09"
19"
#560
0A
0D
0E
0F
0G
#600
0S
#650
1S
1|!
1/"
1."
0/"
1;"
0."
1k
0;"
0k
1:"
0:"
0i!
0c!
0f!
0g!
0h!
0p
1!"
0w
1~!
0t
1}!
1y!
1L
0t!
0s!
0r!
0n!
0q!
1q
1x
1u
1a
1`
1_
1[
1^
0>!
0=!
0<!
0B!
0E!
1-"
1,"
0~
1|
0,"
1&!
1/"
1."
1>"
1y
09"
0&!
18"
1;"
1k
0-"
1)"
1("
1'"
03"
12"
1v
08"
1:"
1~
0|
0("
1q!
0'"
1p!
02"
0o
11"
0'!
1j
15"
14"
18"
0>"
0y
19"
0p!
0^
0]
1o!
1'!
0j
09"
1r
1="
1$!
1&!
04"
1@"
1z
0m
1f
0v
1]
1E!
0o!
1D!
0\
05"
0="
0$!
0&!
01"
0d
0*!
1s
1m
0f
0n
0k
0;"
1?"
0:"
15"
14"
0D!
1\
1C!
0@"
0z
1*!
0s
08"
0r
10"
1<"
1e
1@"
1z
13"
0m
1f
0/"
0C!
1n
1k
1;"
05"
0<"
17"
1d
16"
0i
1|
0n
0l
0k
0}
1o
0@"
0."
0z
1i
07"
00"
06"
1:"
12"
1>"
1y
1n
1l
1m
1-"
0;"
1j
0'!
1v
0?"
0!!
0~
0|
1&!
11"
1="
1$!
18"
1!!
1}
0e
19"
04"
08"
1r
0*!
1s
1|
14"
0f
02"
0d
1<"
17"
09"
04"
1f
0:"
1'!
0j
07"
10"
0i
12"
03"
0f
1:"
0="
0$!
0&!
01"
0'!
1j
1~
0o
0:"
1*!
0s
18"
0r
1="
1$!
1&!
11"
02"
0>"
0y
19"
0<"
17"
1d
1s
08"
0*!
1r
1'!
0j
0v
1i
07"
00"
17"
1<"
0d
0="
0$!
0&!
01"
18"
0i
07"
10"
1*!
0s
08"
0r
0<"
17"
1d
1i
07"
00"
#660
1@
1A
1D
1E
1F
1G
#700
0S
#750
1S
1i!
1b!
1c!
1f!
1g!
1h!
1p
0!"
1w
0~!
1t
0}!
0y!
1t!
1s!
1r!
1n!
0q!
0q
0x
0u
0a
0`
0_
1m!
0[
1^
1>!
1=!
1<!
1.!
1B!
0E!
1p!
0Z
0]
0-"
1,"
1A!
1D!
0|
0,"
1&!
1+"
1/"
1."
09"
0&!
0+"
18"
0d
1;"
0."
1k
0)"
1("
1'"
13"
12"
08"
1d
17"
1*"
0k
1:"
0("
1q!
0p!
1&"
11"
1o
1j
15"
14"
0/"
07"
0*"
0i
0:"
1p!
0^
1]
0n!
1o!
1r
04"
02"
19"
1&!
1z
1f
0;"
1i
16"
0'"
0]
1E!
0p!
0D!
1[
1%"
0\
1)"
0d
0f
12"
01"
0j
18"
1;"
1:"
14"
06"
1D!
1]
0o!
0B!
0m!
1C!
0)"
1("
0q!
17"
0:"
1j
0r
0&!
03"
1f
0&"
0D!
1n!
1\
1l!
0.!
1m!
1$"
0("
1q!
1p!
1^
1&!
1d
08"
0o
1:"
0[
0C!
11!
1Z
1.!
0l!
0^
1'"
0]
0E!
18"
07"
09"
0%"
1B!
0Y
0A!
0Z
01!
1k!
0'"
1E!
0p!
1D!
0m!
05"
04"
1@!
1A!
1#"
1Y
1-!
1]
1&"
0.!
1m!
0$"
14"
0z
0f
02"
0k!
0@!
0X
0&"
0D!
1Z
1.!
15"
1f
0;"
0:"
0j
12"
11"
0-!
1?!
1%"
0A!
1k!
0Z
05"
04"
1z
13"
1:"
02"
0&!
1j
1r
01"
1X
0%"
0m!
1-!
1A!
0#"
0z
0f
1;"
1o
0j
08"
11"
1&!
10"
0d
0r
0?!
1l!
0.!
1$"
0X
0k!
0;"
0:"
19"
0&!
14"
1r
18"
16"
17"
1d
12"
00"
1m!
0$"
11!
1Z
0l!
1?!
0-!
04"
08"
03"
1f
0d
01"
07"
1j
02"
06"
1.!
0Y
0A!
01!
1k!
14"
13"
1X
0f
0o
1:"
12"
17"
0r
1&!
10"
0j
0k!
0Z
1@!
1#"
1Y
1-!
1f
1o
0?!
0:"
09"
1j
1d
18"
16"
0&!
11"
04"
0-!
1A!
0#"
1k!
0@!
0X
1:"
19"
1&!
07"
08"
15"
1r
0f
1X
0k!
1-!
1?!
02"
18"
00"
1z
0d
0:"
0?!
0-!
0X
14"
0j
06"
1;"
17"
12"
1X
05"
1?!
1f
0&!
01"
1j
0?!
04"
0z
15"
1:"
11"
08"
0r
1&!
0f
0;"
14"
03"
1z
1r
1d
18"
0:"
13"
1f
0o
1;"
03"
0d
07"
10"
1o
1:"
09"
04"
02"
0o
17"
14"
00"
16"
05"
19"
0f
01"
0j
09"
1f
10"
11"
06"
0z
04"
0:"
0r
0&!
1:"
16"
1r
14"
01"
12"
00"
0;"
15"
0f
1d
08"
0d
05"
1f
0r
1j
06"
1z
0:"
07"
17"
0z
1:"
1d
1&!
1;"
0;"
07"
18"
#760
0@
0A
0D
0E
0F
0G
#800
0S
#850
1S
0i!
0b!
0c!
0f!
0g!
0h!
0p
1!"
0w
1~!
0t
1}!
1y!
1x!
1K
0L
1M
0t!
0s!
0r!
0n!
0q!
1q
1x
1u
1a
1`
1_
0m!
1[
1^
0>!
0=!
0<!
0.!
0B!
0E!
1Z
1-"
1+"
0A!
1|
1/"
0d
0-"
0/"
19"
0+"
1;"
17"
0|
1,"
1'"
1&"
13"
0;"
1."
1d
09"
0)!
0&!
0&"
1n!
11"
1o
15"
04"
03"
0m
1k
07"
1="
1$!
08"
0n!
1o!
0[
01"
1r
19"
1z
1m
0f
02"
0o
1?"
0:"
1)"
0*!
1s
1[
0\
1B!
1*!
0r
10"
0d
05"
14"
11"
1;"
0?"
1:"
1)!
0j
09"
1e
1("
1q!
1<"
17"
0B!
1C!
0<"
1d
16"
07"
04"
0z
0m
1f
0*!
1r
13"
0e
0="
0$!
1&!
01"
0)"
1|
1p!
0^
0i
1i
17"
00"
1m
0f
0;"
1?"
0:"
1<"
0d
1o
0|
1*!
0s
18"
0r
0("
0q!
19"
0'"
0]
1E!
06"
0?"
1:"
0}
1e
14"
0i
10"
0<"
1d
0p!
1^
1D!
1}
0e
1>"
1y
1|
0m
1f
1i
07"
00"
1'"
1]
0E!
0o!
03"
12"
15"
04"
0>"
0y
0|
0(!
1v
09"
1?"
0:"
0D!
1\
02"
0o
11"
0)!
0'!
1j
05"
1z
1m
0f
1'!
1(!
0v
1="
1$!
08"
1e
15"
1o!
0C!
1)!
0j
1r
0&!
14"
0z
1;"
0?"
1:"
0*!
1s
1|
1z
0\
0="
0$!
1&!
01"
0d
0m
1f
0;"
0e
1<"
19"
1;"
1C!
05"
1*!
0s
18"
0r
10"
1?"
0:"
0|
0i
0z
13"
0<"
17"
1d
16"
1e
15"
09"
06"
03"
04"
0;"
0}
1o
05"
1i
07"
00"
1|
1z
1}
0o
1m
0f
14"
13"
1>"
1y
0z
1;"
0>"
0y
19"
0?"
1:"
0m
1f
12"
0}
1o
0(!
1v
0;"
1(!
0v
03"
1}
0e
1?"
0:"
0)!
1j
1>"
1y
09"
1="
1$!
08"
18"
02"
0o
0>"
0y
0|
15"
1e
0&!
11"
0'!
0(!
1v
1s
1)!
1'!
0j
1(!
0v
04"
1z
1|
0*!
1r
17"
1&!
01"
0="
0$!
08"
1m
0f
1;"
19"
1<"
0d
18"
1*!
0r
0s
0?"
1:"
0i
07"
10"
0<"
1d
17"
0e
1i
07"
00"
0|
09"
#860
1@
1A
1B
1C
1D
1E
1F
1G
1H
#900
0S
#950
1S
0|!
1)"
1("
1q!
1p!
0^
0'"
0]
1E!
0)"
1D!
0("
0q!
0o!
0p!
1^
1\
1)"
1'"
1]
0E!
0C!
1("
1q!
0D!
1p!
0^
1o!
05"
14"
0'"
0]
1E!
0\
0z
0m
1f
15"
1D!
1C!
0;"
1?"
0:"
04"
1z
0o!
13"
1e
1m
0f
1;"
1\
12"
0}
1o
1|
14"
0?"
1:"
0C!
0)!
1j
1>"
1y
0m
1f
1}
0e
03"
04"
1="
1$!
0&!
11"
0'!
0(!
1v
1?"
0:"
13"
0>"
0y
0|
0o
05"
14"
1m
0f
1s
0*!
1r
1e
0}
1o
1'!
1(!
0v
02"
0z
03"
0m
1f
15"
0?"
1:"
17"
1<"
0d
1|
1>"
1y
19"
08"
1)!
0j
0;"
1}
0o
1?"
0:"
1z
0e
0i
07"
10"
09"
0(!
1v
0="
0$!
1&!
01"
13"
0>"
0y
19"
1e
1;"
0|
1="
1$!
1*!
0s
0r
12"
0}
1o
05"
04"
03"
1(!
0v
1|
1s
0<"
17"
1d
0)!
1j
1>"
1y
0z
1m
0f
1}
0o
18"
15"
1i
00"
0&!
11"
0'!
0(!
1v
0;"
0?"
1:"
02"
0>"
0y
1z
0*!
1r
0e
1)!
1'!
0j
1(!
0v
1;"
1<"
0d
0|
1&!
01"
0="
0$!
08"
0i
07"
10"
09"
18"
1*!
0r
0s
0<"
1d
17"
1i
07"
00"
1i!
1b!
1c!
1f!
1g!
1h!
1p
0!"
1w
0~!
1t
0}!
0y!
0x!
1j!
1e!
1d!
1z!
1N
1u!
1t!
1s!
1r!
1n!
0q!
0q
0x
0u
0b
0a
0`
0_
1m!
0[
1^
0p!
1o!
1F!
1>!
1=!
1<!
1.!
1B!
0E!
1p!
1]
0\
0Z
0]
1-"
0,"
1+"
0o!
0D!
1C!
1A!
1D!
1|
1,"
1/"
0."
0&!
0+"
0d
0n!
1\
19"
1&!
1+"
0;"
1@"
0k
0,"
0)"
08"
1d
17"
1*"
1'"
1&"
1[
0C!
13"
12"
18"
0d
1k
0-"
0:"
0&!
0+"
0("
1q!
07"
0*"
0i
1%"
1n!
0B!
0m!
11"
1o
1j
05"
14"
17"
1*"
1:"
0|
08"
1d
0p!
0^
1i
16"
1o!
0[
1l!
0.!
1r
1&!
04"
0@"
0z
03"
0l
1f
0i
07"
0*"
0'"
1]
1E!
1p!
06"
0\
1m!
1$"
1B!
11!
1Z
0d
15"
01"
18"
1l
0f
0k
1;"
0o
1?"
0:"
16"
1i
0D!
0]
1C!
1.!
0l!
0Y
0A!
17"
1@"
1z
05"
0r
0?"
09"
1e
06"
0&"
1D!
0Z
01!
1k!
02"
1@!
14"
1k
0;"
0@"
0z
1d
0e
1|
1A!
1#"
1Y
1-!
0j
04"
13"
0l
1f
15"
1l
0k
1;"
07"
0|
19"
0%"
0k!
0@!
0X
0&!
0f
11"
1o
1?"
1@"
1z
0?"
0m!
0-!
1?!
05"
08"
1r
14"
12"
0}
1e
1k
0;"
1}
0e
01"
0.!
1m!
0$"
1X
0@"
0z
10"
0d
0l
1f
1j
1>"
1y
1|
1:"
0>"
0y
0|
0r
1Z
1.!
0?!
1l
0k
1;"
00"
02"
11"
16"
17"
1?"
0:"
1&!
0'!
1v
09"
1'!
0v
19"
1d
0A!
1k!
0Z
03"
12"
01"
10"
0?"
1:"
06"
0j
1r
0}
1e
1="
1$!
0="
0$!
18"
07"
1-!
1A!
0#"
13"
1}
0o
1j
0r
00"
02"
11"
16"
0e
0&!
0d
1>"
1y
1|
1s
0s
0X
0k!
1o
0>"
0y
1&!
12"
1d
06"
0j
1r
15"
01"
0|
08"
1v
04"
03"
1?!
0-!
0v
1j
0&!
0d
1@"
1z
02"
11"
0r
0f
0o
1X
1&!
17"
1k
0;"
12"
0j
1r
1d
0:"
13"
09"
14"
0?!
10"
18"
1:"
1j
0&!
0d
07"
1o
0l
1f
03"
05"
16"
1&!
08"
17"
19"
01"
1?"
0:"
13"
0o
0@"
0z
18"
0r
1e
15"
11"
0}
1o
00"
09"
1l
0k
1;"
1d
1|
1@"
1z
05"
01"
1r
03"
1>"
1y
19"
04"
06"
0?"
1:"
07"
09"
1k
0;"
14"
0@"
0z
02"
0r
10"
0d
1}
0o
0'!
1v
0f
15"
11"
0e
1f
0k
1;"
1'!
0j
1d
16"
17"
0>"
0y
19"
1="
1$!
08"
13"
1@"
1z
04"
01"
1r
0|
0="
0$!
0&!
07"
0v
1s
1o
1k
0;"
0f
12"
11"
0r
0d
09"
0s
19"
1j
1r
00"
1d
1&!
01"
0d
06"
18"
0r
17"
1d
07"
#960
0U
#1000
0S
#1050
1S
1|!
0/"
1;"
0@"
1."
1/"
0;"
1@"
0."
0/"
1;"
0@"
1."
1c
0W
0"!
1""
1{!
1x!
0p
1!"
0w
1~!
0t
1}!
1y!
0N
1L
1`
1#!
1q
1x
1u
0=!
0`
1=!
1+"
1-"
0d
0."
0-"
0~
1|
1,"
17"
0k
1-"
1~
0|
1."
1'"
1&"
1>"
1y
09"
0)!
0&!
0+"
1)"
0:"
0~
1|
0>"
0y
19"
1k
0&"
0n!
0'!
0(!
1v
1="
1$!
08"
1d
1("
0q!
0)"
0("
1>"
1y
09"
1'!
1(!
0v
0."
1:"
1n!
0o!
18"
1s
07"
0p!
1)"
1q!
0'!
0(!
1v
08"
0k
1/"
0n!
0m!
17"
0q!
0)"
18"
0:"
0;"
1@"
1m!
1l!
0.!
1p!
1q!
1k
0l!
1.!
0m!
11!
1o!
0p!
1:"
01!
1l!
0.!
0o!
1p!
11!
03"
02"
1o!
13"
1~
0o
1)!
1'!
0j
05"
1)"
0o!
12"
0~
1o
15"
0>"
0y
19"
1&!
14"
0@"
0z
11"
0q!
0)!
1j
1>"
1y
09"
02"
05"
1@"
1z
1(!
0v
08"
1f
0k
1;"
0*!
1r
03"
0&!
01"
0(!
1v
1)!
0j
15"
04"
0@"
0z
0l
1k
0;"
18"
10"
1<"
0d
1~
0o
0p!
1*!
0r
11"
1&!
13"
1@"
1z
1l
0f
0k
1;"
1?"
0:"
16"
0i
07"
0>"
0y
19"
05"
14"
0<"
1d
0*!
1r
08"
0~
1o
1k
0;"
0?"
0!!
0}
1e
06"
1(!
0v
1o!
0@"
0z
0l
1f
1i
17"
1<"
0d
1>"
1y
09"
1:"
1!!
1}
0e
00"
0|
0="
0$!
18"
1l
0k
1;"
1?"
0:"
0i
07"
0(!
1v
1|
15"
19"
1*!
0s
0?"
1:"
12"
03"
04"
0!!
0}
1e
16"
1="
1$!
08"
09"
1@"
1z
0<"
17"
05"
1!!
1}
0e
0)!
0'!
1j
1~
0o
0f
13"
15"
0|
0*!
1s
1k
0;"
1i
0@"
0z
1|
0&!
01"
02"
0>"
0y
05"
0~
1o
1@"
1z
1<"
07"
06"
0k
1;"
18"
1*!
0r
1)!
1'!
0j
1(!
0v
0@"
0z
12"
1>"
1y
1k
0;"
0i
15"
0:"
0<"
1d
1&!
11"
0="
0$!
08"
05"
0k
1;"
0)!
1j
0'!
0(!
1v
1:"
16"
1@"
1z
14"
1i
17"
1r
0s
0@"
0z
0:"
1="
1$!
0&!
01"
1k
0;"
0l
1f
15"
06"
0d
07"
1l
0k
1;"
1s
18"
0r
1?"
1@"
1z
0?"
1:"
1d
0!!
0}
1e
0l
1k
0;"
1!!
1}
0e
17"
0|
1?"
0:"
1|
19"
0!!
0}
1e
09"
0|
19"
#1060
1?
1U
#1100
0S
#1150
1S
0c
1W
1a!
0V
1J
0M
1[
1^
1]
1Z
0Y
0l!
1k!
0B!
0E!
0D!
0A!
1@!
01!
0k!
1-!
1Y
0-!
0X
0@!
1X
1?!
0?!
10"
11"
00"
16"
0*!
1r
10"
03"
06"
04"
01"
05"
1<"
0d
16"
1~
1}
0o
1l
0f
13"
11"
1*!
0r
0@"
0z
0i
07"
09"
14"
03"
00"
0?"
1:"
0~
0}
1o
0*!
1r
0<"
1d
0k
1;"
15"
1f
02"
1~
1}
0o
10"
01"
1!!
0e
04"
19"
1<"
0d
1i
17"
1@"
1z
05"
1)!
1'!
0j
09"
1*!
0r
0>"
0y
1|
0f
14"
11"
0i
07"
1k
0;"
0@"
0z
1&!
01"
0<"
1d
1(!
0v
19"
0:"
0l
1f
0*!
1r
06"
1l
0k
1;"
1*!
0r
1i
17"
00"
0="
0$!
1?"
1<"
0d
0?"
1:"
0<"
1d
0s
0!!
1e
0i
07"
10"
1!!
0e
1i
00"
1>"
1y
0|
0>"
0y
1|
0(!
1v
09"
1(!
0v
19"
1="
1$!
08"
0="
0$!
18"
1s
0s
17"
07"
#1160
0?
0B
0C
0H
