lab1-filters/adv/logs/sim.log
You can run vsim
QuestaSim-64 vcom 2020.4 Compiler 2020.10 Oct 13 2020
Start time: 18:09:57 on Nov 21,2023
vcom -work work ../src/iir_pkg.vhd 
-- Loading package STANDARD
-- Loading package TEXTIO
-- Loading package std_logic_1164
-- Loading package NUMERIC_STD
-- Loading package MATH_REAL
-- Compiling package iir_pkg
-- Compiling package body iir_pkg
-- Loading package iir_pkg
End time: 18:09:57 on Nov 21,2023, Elapsed time: 0:00:00
Errors: 0, Warnings: 0
QuestaSim-64 vcom 2020.4 Compiler 2020.10 Oct 13 2020
Start time: 18:09:57 on Nov 21,2023
vcom -work work ../src/reg.vhd 
-- Loading package STANDARD
-- Loading package TEXTIO
-- Loading package std_logic_1164
-- Loading package NUMERIC_STD
-- Compiling entity REG
-- Compiling architecture BEHAV of REG
-- Compiling configuration CFG_REG_BEHAV
-- Loading entity REG
-- Loading architecture BEHAV of REG
End time: 18:09:58 on Nov 21,2023, Elapsed time: 0:00:01
Errors: 0, Warnings: 0
QuestaSim-64 vcom 2020.4 Compiler 2020.10 Oct 13 2020
Start time: 18:09:58 on Nov 21,2023
vcom -work work ../tb/clk_gen.vhd 
-- Loading package STANDARD
-- Loading package TEXTIO
-- Loading package std_logic_1164
-- Loading package std_logic_arith
-- Loading package STD_LOGIC_UNSIGNED
-- Compiling entity clk_gen
-- Compiling architecture beh of clk_gen
End time: 18:09:58 on Nov 21,2023, Elapsed time: 0:00:00
Errors: 0, Warnings: 0
QuestaSim-64 vcom 2020.4 Compiler 2020.10 Oct 13 2020
Start time: 18:09:58 on Nov 21,2023
vcom -work work ../src/iir.vhd 
-- Loading package STANDARD
-- Loading package TEXTIO
-- Loading package std_logic_1164
-- Loading package NUMERIC_STD
-- Loading package MATH_REAL
-- Loading package iir_pkg
-- Compiling entity iir
-- Compiling architecture behav of iir
End time: 18:09:59 on Nov 21,2023, Elapsed time: 0:00:01
Errors: 0, Warnings: 0
QuestaSim-64 vcom 2020.4 Compiler 2020.10 Oct 13 2020
Start time: 18:09:59 on Nov 21,2023
vcom -work work ../tb/data_maker.vhd 
-- Loading package STANDARD
-- Loading package TEXTIO
-- Loading package std_logic_1164
-- Loading package std_logic_arith
-- Loading package STD_LOGIC_UNSIGNED
-- Loading package std_logic_textio
-- Compiling entity data_maker
-- Compiling architecture beh of data_maker
End time: 18:09:59 on Nov 21,2023, Elapsed time: 0:00:00
Errors: 0, Warnings: 0
QuestaSim-64 vcom 2020.4 Compiler 2020.10 Oct 13 2020
Start time: 18:09:59 on Nov 21,2023
vcom -work work ../tb/data_sink.vhd 
-- Loading package STANDARD
-- Loading package TEXTIO
-- Loading package std_logic_1164
-- Loading package std_logic_arith
-- Loading package STD_LOGIC_UNSIGNED
-- Loading package std_logic_textio
-- Compiling entity data_sink
-- Compiling architecture beh of data_sink
End time: 18:10:00 on Nov 21,2023, Elapsed time: 0:00:01
Errors: 0, Warnings: 0
QuestaSim-64 vlog 2020.4 Compiler 2020.10 Oct 13 2020
Start time: 18:10:00 on Nov 21,2023
vlog -work work ../tb/tb_iir.v 
-- Compiling module tb_iir

Top level modules:
	tb_iir
End time: 18:10:00 on Nov 21,2023, Elapsed time: 0:00:00
Errors: 0, Warnings: 0
Reading pref.tcl

# 2020.4

# vsim -c work.tb_iir -voptargs="+acc" -do "sim.tcl" 
# Start time: 18:10:07 on Nov 21,2023
# ** Note: (vsim-3812) Design is being optimized...
# //  Questa Sim-64
# //  Version 2020.4 linux_x86_64 Oct 13 2020
# //
# //  Copyright 1991-2020 Mentor Graphics Corporation
# //  All Rights Reserved.
# //
# //  QuestaSim and its associated documentation contain trade
# //  secrets and commercial or financial information that are the property of
# //  Mentor Graphics Corporation and are privileged, confidential,
# //  and exempt from disclosure under the Freedom of Information Act,
# //  5 U.S.C. Section 552. Furthermore, this information
# //  is prohibited from disclosure under the Trade Secrets Act,
# //  18 U.S.C. Section 1905.
# //
# ** Warning: License feature 'msimhdlsim' will expire in 9 days.
# Loading work.tb_iir(fast)
# ** Warning: License feature 'msimhdlmix' will expire in 9 days.
# Loading std.standard
# Loading std.textio(body)
# Loading ieee.std_logic_1164(body)
# Loading ieee.std_logic_arith(body)
# Loading ieee.std_logic_unsigned(body)
# Loading work.clk_gen(beh)#1
# Loading ieee.std_logic_textio(body)
# Loading work.data_maker(beh)#1
# Loading ieee.numeric_std(body)
# Loading ieee.math_real(body)
# Loading work.iir_pkg(body)
# Loading work.iir(behav)#1
# Loading work.reg(behav)#1
# Loading work.reg(behav)#2
# Loading work.data_sink(beh)#1
# do sim.tcl
# Time=0 Reset async
# Time=4 Reset async
# Time=5 Reset async
# Time=12 Reset async
# Time=20 VIN:0, DIN:    0, VOUT: x, DOUT:    0
# Time=28 VIN:0, DIN:    0, VOUT: 0, DOUT:    0
# Time=36 VIN:1, DIN:    0, VOUT: 0, DOUT:    0
# Time=44 VIN:1, DIN:  158, VOUT: 0, DOUT:    0
# Time=52 VIN:1, DIN:    0, VOUT: 0, DOUT:    0
# Time=60 VIN:1, DIN:  414, VOUT: 0, DOUT:    0
# Time=68 VIN:1, DIN:    0, VOUT: 0, DOUT:    0
# Time=76 VIN:1, DIN:  511, VOUT: 1, DOUT:    0
# Time=84 VIN:0, DIN:  511, VOUT: 1, DOUT:   64
# Time=92 VIN:1, DIN: 1023, VOUT: 1, DOUT:   72
# Time=100 VIN:1, DIN:  414, VOUT: 0, DOUT:  176
# Time=108 VIN:1, DIN: 1023, VOUT: 1, DOUT:  176
# Time=116 VIN:1, DIN:  158, VOUT: 1, DOUT:  192
# Time=124 VIN:1, DIN: 1023, VOUT: 1, DOUT:  240
# Time=132 VIN:1, DIN:  865, VOUT: 1, DOUT:  248
# Time=140 VIN:1, DIN: 1023, VOUT: 1, DOUT:  200
# Time=148 VIN:0, DIN: 1023, VOUT: 1, DOUT:  192
# Time=156 VIN:0, DIN: 1023, VOUT: 1, DOUT:   88
# Time=164 VIN:0, DIN: 1023, VOUT: 0, DOUT:   72
# Time=172 VIN:0, DIN: 1023, VOUT: 0, DOUT:   72
# Time=180 VIN:0, DIN: 1023, VOUT: 0, DOUT:   72
# Time=188 VIN:0, DIN: 1023, VOUT: 0, DOUT:   72
# Time=196 VIN:1, DIN:  609, VOUT: 0, DOUT:   72
# Time=204 VIN:0, DIN:  609, VOUT: 0, DOUT:   72
# Time=212 VIN:0, DIN:  609, VOUT: 1, DOUT:   72
# Time=220 VIN:0, DIN:  609, VOUT: 0, DOUT:  960
# Time=228 VIN:0, DIN:  609, VOUT: 0, DOUT:  960
# Time=236 VIN:0, DIN:  609, VOUT: 0, DOUT:  960
# Time=244 VIN:1, DIN: 1023, VOUT: 0, DOUT:  960
# Time=252 VIN:1, DIN:  512, VOUT: 0, DOUT:  960
# Time=260 VIN:0, DIN:  512, VOUT: 1, DOUT:  960
# Time=268 VIN:0, DIN:  512, VOUT: 1, DOUT:  936
# Time=276 VIN:0, DIN:  512, VOUT: 0, DOUT:  824
# Time=284 VIN:0, DIN:  512, VOUT: 0, DOUT:  824
# Time=292 VIN:1, DIN:    0, VOUT: 0, DOUT:  824
# Time=300 VIN:0, DIN:    0, VOUT: 0, DOUT:  824
# Time=308 VIN:1, DIN:  609, VOUT: 1, DOUT:  824
# Time=316 VIN:0, DIN:  609, VOUT: 0, DOUT:  800
# Time=324 VIN:0, DIN:  609, VOUT: 1, DOUT:  800
# Time=332 VIN:0, DIN:  609, VOUT: 0, DOUT:  752
# Time=340 VIN:1, DIN:    0, VOUT: 0, DOUT:  752
# Time=348 VIN:1, DIN:  865, VOUT: 0, DOUT:  752
# Time=356 VIN:1, DIN:    0, VOUT: 1, DOUT:  752
# Time=364 VIN:1, DIN:  158, VOUT: 1, DOUT:  744
# Time=372 VIN:0, DIN:  158, VOUT: 1, DOUT:  792
# Time=380 VIN:0, DIN:  158, VOUT: 1, DOUT:  800
# Time=388 VIN:1, DIN:    0, VOUT: 0, DOUT:  904
# Time=396 VIN:0, DIN:    0, VOUT: 0, DOUT:  904
# Time=404 VIN:0, DIN:    0, VOUT: 1, DOUT:  904
# Time=412 VIN:0, DIN:    0, VOUT: 0, DOUT:  920
# Time=420 VIN:1, DIN:  414, VOUT: 0, DOUT:  920
# Time=428 VIN:0, DIN:  414, VOUT: 0, DOUT:  920
# Time=436 VIN:1, DIN:    0, VOUT: 1, DOUT:  920
# Time=444 VIN:1, DIN:  511, VOUT: 0, DOUT:   32
# Time=452 VIN:0, DIN:  511, VOUT: 1, DOUT:   32
# Time=460 VIN:0, DIN:  511, VOUT: 1, DOUT:   56
# Time=468 VIN:1, DIN: 1023, VOUT: 0, DOUT:  168
# Time=476 VIN:1, DIN:  414, VOUT: 0, DOUT:  168
# Time=484 VIN:1, DIN: 1023, VOUT: 1, DOUT:  168
# Time=492 VIN:0, DIN: 1023, VOUT: 1, DOUT:  192
# Time=500 VIN:1, DIN:  158, VOUT: 1, DOUT:  240
# Time=508 VIN:0, DIN:  158, VOUT: 0, DOUT:  248
# Time=516 VIN:1, DIN: 1023, VOUT: 1, DOUT:  248
# Time=524 VIN:0, DIN: 1023, VOUT: 0, DOUT:  200
# Time=532 VIN:0, DIN: 1023, VOUT: 1, DOUT:  200
# Time=540 VIN:1, DIN:  865, VOUT: 0, DOUT:  192
# Time=548 VIN:1, DIN: 1023, VOUT: 0, DOUT:  192
# Time=556 VIN:1, DIN:  609, VOUT: 1, DOUT:  192
# Time=564 VIN:1, DIN: 1023, VOUT: 1, DOUT:   88
# Time=572 VIN:1, DIN:  512, VOUT: 1, DOUT:   72
# Time=580 VIN:0, DIN:  512, VOUT: 1, DOUT:  960
# Time=588 VIN:1, DIN:    0, VOUT: 1, DOUT:  936
# Time=596 VIN:0, DIN:    0, VOUT: 0, DOUT:  824
# Time=604 VIN:0, DIN:    0, VOUT: 1, DOUT:  824
# Time=612 VIN:0, DIN:    0, VOUT: 0, DOUT:  800
# Time=620 VIN:0, DIN:    0, VOUT: 0, DOUT:  800
# Time=628 VIN:1, DIN:  609, VOUT: 0, DOUT:  800
# Time=636 VIN:1, DIN:    0, VOUT: 0, DOUT:  800
# Time=644 VIN:1, DIN:  865, VOUT: 1, DOUT:  800
# Time=652 VIN:0, DIN:  865, VOUT: 1, DOUT:  752
# Time=660 VIN:0, DIN:  865, VOUT: 1, DOUT:  744
# Time=668 VIN:0, DIN:  865, VOUT: 0, DOUT:  792
# Time=676 VIN:1, DIN:    0, VOUT: 0, DOUT:  792
# Time=684 VIN:0, DIN:    0, VOUT: 0, DOUT:  792
# Time=692 VIN:0, DIN:    0, VOUT: 1, DOUT:  792
# Time=700 VIN:1, DIN:  158, VOUT: 0, DOUT:  800
# Time=708 VIN:0, DIN:  158, VOUT: 0, DOUT:  800
# Time=716 VIN:0, DIN:  158, VOUT: 1, DOUT:  800
# Time=724 VIN:1, DIN:    0, VOUT: 0, DOUT:  904
# Time=732 VIN:1, DIN:  414, VOUT: 0, DOUT:  904
# Time=740 VIN:0, DIN:  414, VOUT: 1, DOUT:  904
# Time=748 VIN:1, DIN:    0, VOUT: 1, DOUT:  920
# Time=756 VIN:1, DIN:  511, VOUT: 0, DOUT:   32
# Time=764 VIN:0, DIN:  511, VOUT: 1, DOUT:   32
# Time=772 VIN:1, DIN:    0, VOUT: 1, DOUT:   56
# Time=780 VIN:0, DIN:    0, VOUT: 0, DOUT:  168
# Time=788 VIN:1, DIN:  414, VOUT: 1, DOUT:  168
# Time=796 VIN:1, DIN: 1023, VOUT: 0, DOUT:  192
# Time=804 VIN:0, DIN: 1023, VOUT: 1, DOUT:  192
# Time=812 VIN:1, DIN:  158, VOUT: 1, DOUT:  240
# Time=820 VIN:1, DIN:    0, VOUT: 0, DOUT:  248
# Time=828 VIN:1, DIN:  865, VOUT: 1, DOUT:  248
# Time=836 VIN:1, DIN: 1023, VOUT: 1, DOUT:  208
# Time=844 VIN:0, DIN: 1023, VOUT: 1, DOUT:  200
# Time=852 VIN:1, DIN:  609, VOUT: 1, DOUT:   88
# Time=860 VIN:1, DIN: 1023, VOUT: 0, DOUT:   72
# Time=868 VIN:0, DIN: 1023, VOUT: 1, DOUT:   72
# Time=876 VIN:0, DIN: 1023, VOUT: 1, DOUT:  960
# Time=884 VIN:0, DIN: 1023, VOUT: 0, DOUT:  936
# Time=892 VIN:1, DIN:  512, VOUT: 0, DOUT:  936
# Time=900 VIN:1, DIN:    0, VOUT: 0, DOUT:  936
# Time=908 VIN:0, DIN:    0, VOUT: 1, DOUT:  936
# Time=916 VIN:1, DIN:  609, VOUT: 1, DOUT:  824
# Time=924 VIN:0, DIN:  609, VOUT: 0, DOUT:  800
# Time=932 VIN:0, DIN:  609, VOUT: 1, DOUT:  800
# Time=940 VIN:1, DIN:    0, VOUT: 0, DOUT:  752
# Time=948 VIN:0, DIN:    0, VOUT: 0, DOUT:  752
# Time=956 VIN:1, DIN:  865, VOUT: 1, DOUT:  752
# Time=964 VIN:1, DIN:    0, VOUT: 0, DOUT:  744
# Time=972 VIN:1, DIN:  158, VOUT: 1, DOUT:  744
# Time=980 VIN:0, DIN:  158, VOUT: 1, DOUT:  792
# Time=988 VIN:1, DIN:    0, VOUT: 1, DOUT:  800
# Time=996 VIN:1, DIN:  414, VOUT: 0, DOUT:  904
# Time=1004 VIN:1, DIN:    0, VOUT: 1, DOUT:  904
# Time=1012 VIN:0, DIN:    0, VOUT: 1, DOUT:  920
# Time=1020 VIN:0, DIN:    0, VOUT: 1, DOUT:   32
# Time=1028 VIN:1, DIN:  511, VOUT: 0, DOUT:   56
# Time=1036 VIN:1, DIN:    0, VOUT: 0, DOUT:   56
# Time=1044 VIN:0, DIN:    0, VOUT: 1, DOUT:   56
# Time=1052 VIN:0, DIN:    0, VOUT: 1, DOUT:  168
# Time=1060 VIN:1, DIN:  414, VOUT: 0, DOUT:  192
# Time=1068 VIN:0, DIN:  414, VOUT: 0, DOUT:  192
# Time=1076 VIN:1, DIN: 1023, VOUT: 1, DOUT:  192
# Time=1084 VIN:0, DIN: 1023, VOUT: 0, DOUT:  240
# Time=1092 VIN:1, DIN:  158, VOUT: 1, DOUT:  240
# Time=1100 VIN:0, DIN:  158, VOUT: 0, DOUT:  248
# Time=1108 VIN:1, DIN: 1023, VOUT: 1, DOUT:  248
# Time=1116 VIN:1, DIN:  865, VOUT: 0, DOUT:  208
# Time=1124 VIN:1, DIN: 1023, VOUT: 1, DOUT:  208
# Time=1132 VIN:1, DIN:  609, VOUT: 1, DOUT:  200
# Time=1140 VIN:1, DIN: 1023, VOUT: 1, DOUT:   88
# Time=1148 VIN:1, DIN:  512, VOUT: 1, DOUT:   72
# Time=1156 VIN:1, DIN:    0, VOUT: 1, DOUT:  960
# Time=1164 VIN:0, DIN:    0, VOUT: 1, DOUT:  936
# Time=1172 VIN:0, DIN:    0, VOUT: 1, DOUT:  824
# Time=1180 VIN:0, DIN:    0, VOUT: 0, DOUT:  800
# Time=1188 VIN:0, DIN:    0, VOUT: 0, DOUT:  800
# Time=1196 VIN:0, DIN:    0, VOUT: 0, DOUT:  800
# Time=1204 VIN:0, DIN:    0, VOUT: 0, DOUT:  800
# Time=1212 VIN:1, DIN:  609, VOUT: 0, DOUT:  800
# Time=1220 VIN:0, DIN:  609, VOUT: 0, DOUT:  800
# Time=1228 VIN:0, DIN:  609, VOUT: 1, DOUT:  800
# Time=1236 VIN:0, DIN:  609, VOUT: 0, DOUT:  752
# Time=1244 VIN:0, DIN:  609, VOUT: 0, DOUT:  752
# Time=1252 VIN:0, DIN:  609, VOUT: 0, DOUT:  752
# Time=1260 VIN:1, DIN:    0, VOUT: 0, DOUT:  752
# Time=1268 VIN:1, DIN:  865, VOUT: 0, DOUT:  752
# Time=1276 VIN:0, DIN:  865, VOUT: 1, DOUT:  752
# Time=1284 VIN:0, DIN:  865, VOUT: 1, DOUT:  744
# Time=1292 VIN:0, DIN:  865, VOUT: 0, DOUT:  792
# Time=1300 VIN:0, DIN:  865, VOUT: 0, DOUT:  792
# Time=1308 VIN:1, DIN:    0, VOUT: 0, DOUT:  792
# Time=1316 VIN:0, DIN:    0, VOUT: 0, DOUT:  792
# Time=1324 VIN:1, DIN:  158, VOUT: 1, DOUT:  792
# Time=1332 VIN:0, DIN:  158, VOUT: 0, DOUT:  800
# Time=1340 VIN:0, DIN:  158, VOUT: 1, DOUT:  800
# Time=1348 VIN:0, DIN:  158, VOUT: 0, DOUT:  904
# Time=1356 VIN:1, DIN:    0, VOUT: 0, DOUT:  904
# Time=1364 VIN:1, DIN:  414, VOUT: 0, DOUT:  904
# Time=1372 VIN:1, DIN:    0, VOUT: 1, DOUT:  904
# Time=1380 VIN:1, DIN:  511, VOUT: 1, DOUT:  920
# Time=1388 VIN:0, DIN:  511, VOUT: 1, DOUT:   32
# Time=1396 VIN:0, DIN:  511, VOUT: 1, DOUT:   56
# Time=1404 VIN:1, DIN: 1023, VOUT: 0, DOUT:  168
# Time=1412 VIN:0, DIN: 1023, VOUT: 0, DOUT:  168
# Time=1420 VIN:0, DIN: 1023, VOUT: 1, DOUT:  168
# Time=1428 VIN:0, DIN: 1023, VOUT: 0, DOUT:  192
# Time=1436 VIN:1, DIN:  414, VOUT: 0, DOUT:  192
# Time=1444 VIN:0, DIN:  414, VOUT: 0, DOUT:  192
# Time=1452 VIN:1, DIN: 1023, VOUT: 1, DOUT:  192
# Time=1460 VIN:1, DIN:  158, VOUT: 0, DOUT:  240
# Time=1468 VIN:0, DIN:  158, VOUT: 1, DOUT:  240
# Time=1476 VIN:0, DIN:  158, VOUT: 1, DOUT:  248
# Time=1484 VIN:1, DIN: 1023, VOUT: 0, DOUT:  200
# Time=1492 VIN:1, DIN:  865, VOUT: 0, DOUT:  200
# Time=1500 VIN:1, DIN:    0, VOUT: 1, DOUT:  200
# Time=1508 VIN:0, DIN:    0, VOUT: 1, DOUT:  192
# Time=1516 VIN:1, DIN:  609, VOUT: 1, DOUT:   88
# Time=1524 VIN:0, DIN:  609, VOUT: 0, DOUT:   72
# Time=1532 VIN:1, DIN:    0, VOUT: 1, DOUT:   72
# Time=1540 VIN:0, DIN:    0, VOUT: 0, DOUT:  960
# Time=1548 VIN:0, DIN:    0, VOUT: 1, DOUT:  960
# Time=1556 VIN:1, DIN:  512, VOUT: 0, DOUT:  936
# Time=1564 VIN:1, DIN:    0, VOUT: 0, DOUT:  936
# Time=1572 VIN:1, DIN:  609, VOUT: 1, DOUT:  936
# Time=1580 VIN:1, DIN: 1023, VOUT: 1, DOUT:  824
# Time=1588 VIN:1, DIN:  865, VOUT: 1, DOUT:  800
# Time=1596 VIN:0, DIN:  865, VOUT: 1, DOUT:  760
# Time=1604 VIN:1, DIN: 1023, VOUT: 1, DOUT:  752
# Time=1612 VIN:0, DIN: 1023, VOUT: 0, DOUT:  792
# Time=1620 VIN:0, DIN: 1023, VOUT: 1, DOUT:  792
# Time=1628 VIN:0, DIN: 1023, VOUT: 0, DOUT:  800
# Time=1636 VIN:0, DIN: 1023, VOUT: 0, DOUT:  800
# Time=1644 VIN:1, DIN:  158, VOUT: 0, DOUT:  800
# Time=1652 VIN:1, DIN:    0, VOUT: 0, DOUT:  800
# Time=1660 VIN:1, DIN:  414, VOUT: 1, DOUT:  800
# Time=1668 VIN:0, DIN:  414, VOUT: 1, DOUT:  904
# Time=1676 VIN:0, DIN:  414, VOUT: 1, DOUT:  920
# Time=1684 VIN:0, DIN:  414, VOUT: 0, DOUT:   32
# Time=1692 VIN:1, DIN: 1023, VOUT: 0, DOUT:   32
# Time=1700 VIN:0, DIN: 1023, VOUT: 0, DOUT:   32
# Time=1708 VIN:0, DIN: 1023, VOUT: 1, DOUT:   32
# Time=1716 VIN:1, DIN:  511, VOUT: 0, DOUT:   56
# Time=1724 VIN:0, DIN:  511, VOUT: 0, DOUT:   56
# Time=1732 VIN:0, DIN:  511, VOUT: 1, DOUT:   56
# Time=1740 VIN:1, DIN: 1023, VOUT: 0, DOUT:  168
# Time=1748 VIN:1, DIN:  414, VOUT: 0, DOUT:  168
# Time=1756 VIN:0, DIN:  414, VOUT: 1, DOUT:  168
# Time=1764 VIN:1, DIN: 1023, VOUT: 1, DOUT:  192
# Time=1772 VIN:1, DIN:  158, VOUT: 0, DOUT:  232
# Time=1780 VIN:0, DIN:  158, VOUT: 1, DOUT:  232
# Time=1788 VIN:1, DIN: 1023, VOUT: 1, DOUT:  240
# Time=1796 VIN:0, DIN: 1023, VOUT: 0, DOUT:  200
# Time=1804 VIN:1, DIN:  865, VOUT: 1, DOUT:  200
# Time=1812 VIN:1, DIN: 1023, VOUT: 0, DOUT:  192
# Time=1820 VIN:0, DIN: 1023, VOUT: 1, DOUT:  192
# Time=1828 VIN:1, DIN:  609, VOUT: 1, DOUT:   88
# Time=1836 VIN:1, DIN: 1023, VOUT: 0, DOUT:   72
# Time=1844 VIN:1, DIN:  512, VOUT: 1, DOUT:   72
# Time=1852 VIN:1, DIN: 1023, VOUT: 1, DOUT:  960
# Time=1860 VIN:0, DIN: 1023, VOUT: 1, DOUT:  936
# Time=1868 VIN:1, DIN:  609, VOUT: 1, DOUT:  824
# Time=1876 VIN:1, DIN: 1023, VOUT: 0, DOUT:  800
# Time=1884 VIN:0, DIN: 1023, VOUT: 1, DOUT:  800
# Time=1892 VIN:0, DIN: 1023, VOUT: 1, DOUT:  752
# Time=1900 VIN:0, DIN: 1023, VOUT: 0, DOUT:  744
# Time=1908 VIN:1, DIN:  865, VOUT: 0, DOUT:  744
# Time=1916 VIN:1, DIN:    0, VOUT: 0, DOUT:  744
# Time=1924 VIN:0, DIN:    0, VOUT: 1, DOUT:  744
# Time=1932 VIN:1, DIN:  158, VOUT: 1, DOUT:  784
# Time=1940 VIN:0, DIN:  158, VOUT: 0, DOUT:  792
# Time=1948 VIN:0, DIN:  158, VOUT: 1, DOUT:  792
# Time=1956 VIN:1, DIN: 1023, VOUT: 0, DOUT:  904
# Time=1964 VIN:0, DIN: 1023, VOUT: 0, DOUT:  904
# Time=1972 VIN:1, DIN:  414, VOUT: 1, DOUT:  904
# Time=1980 VIN:1, DIN:    0, VOUT: 0, DOUT:  920
# Time=1988 VIN:1, DIN:  511, VOUT: 1, DOUT:  920
# Time=1996 VIN:0, DIN:  511, VOUT: 1, DOUT:   32
# Time=2004 VIN:1, DIN:    0, VOUT: 1, DOUT:   56
# Time=2012 VIN:1, DIN:  414, VOUT: 0, DOUT:  168
# Time=2020 VIN:1, DIN:    0, VOUT: 1, DOUT:  168
# Time=2028 VIN:0, DIN:    0, VOUT: 1, DOUT:  192
# Time=2036 VIN:0, DIN:    0, VOUT: 1, DOUT:  240
# Time=2044 VIN:1, DIN:  158, VOUT: 0, DOUT:  248
# Time=2052 VIN:1, DIN: 1023, VOUT: 0, DOUT:  248
# Time=2060 VIN:0, DIN: 1023, VOUT: 1, DOUT:  248
# Time=2068 VIN:0, DIN: 1023, VOUT: 1, DOUT:  208
# Time=2076 VIN:1, DIN:  865, VOUT: 0, DOUT:  200
# Time=2084 VIN:0, DIN:  865, VOUT: 0, DOUT:  200
# Time=2092 VIN:1, DIN:    0, VOUT: 1, DOUT:  200
# Time=2100 VIN:0, DIN:    0, VOUT: 0, DOUT:   88
# Time=2108 VIN:1, DIN:  609, VOUT: 1, DOUT:   88
# Time=2116 VIN:0, DIN:  609, VOUT: 0, DOUT:   72
# Time=2124 VIN:1, DIN:    0, VOUT: 1, DOUT:   72
# Time=2132 VIN:1, DIN:  512, VOUT: 0, DOUT:  960
# Time=2140 VIN:1, DIN:    0, VOUT: 1, DOUT:  960
# Time=2148 VIN:1, DIN:  609, VOUT: 1, DOUT:  936
# Time=2156 VIN:1, DIN: 1023, VOUT: 1, DOUT:  824
# Time=2164 VIN:1, DIN:  865, VOUT: 1, DOUT:  800
# Time=2172 VIN:1, DIN:    0, VOUT: 1, DOUT:  760
# Time=2180 VIN:0, DIN:    0, VOUT: 1, DOUT:  752
# Time=2188 VIN:0, DIN:    0, VOUT: 1, DOUT:  792
# Time=2196 VIN:0, DIN:    0, VOUT: 0, DOUT:  800
# Time=2204 VIN:0, DIN:    0, VOUT: 0, DOUT:  800
# Time=2212 VIN:0, DIN:    0, VOUT: 0, DOUT:  800
# Time=2220 VIN:0, DIN:    0, VOUT: 0, DOUT:  800
# Time=2228 VIN:1, DIN:  158, VOUT: 0, DOUT:  800
# Time=2236 VIN:0, DIN:  158, VOUT: 0, DOUT:  800
# Time=2244 VIN:0, DIN:  158, VOUT: 1, DOUT:  800
# Time=2252 VIN:0, DIN:  158, VOUT: 0, DOUT:  904
# Time=2260 VIN:0, DIN:  158, VOUT: 0, DOUT:  904
# Time=2268 VIN:0, DIN:  158, VOUT: 0, DOUT:  904
# Time=2276 VIN:1, DIN:    0, VOUT: 0, DOUT:  904
# Time=2284 VIN:1, DIN:  414, VOUT: 0, DOUT:  904
# Time=2292 VIN:0, DIN:  414, VOUT: 1, DOUT:  904
# Time=2300 VIN:0, DIN:  414, VOUT: 1, DOUT:  920
# Time=2308 VIN:0, DIN:  414, VOUT: 0, DOUT:   32
# Time=2316 VIN:0, DIN:  414, VOUT: 0, DOUT:   32
# Time=2324 VIN:1, DIN:    0, VOUT: 0, DOUT:   32
# Time=2332 VIN:0, DIN:    0, VOUT: 0, DOUT:   32
# Time=2340 VIN:1, DIN:  511, VOUT: 1, DOUT:   32
# Time=2348 VIN:0, DIN:  511, VOUT: 0, DOUT:   56
# Time=2356 VIN:0, DIN:  511, VOUT: 1, DOUT:   56
# Time=2364 VIN:0, DIN:  511, VOUT: 0, DOUT:  168
# Time=2372 VIN:1, DIN: 1023, VOUT: 0, DOUT:  168
# Time=2380 VIN:1, DIN:  414, VOUT: 0, DOUT:  168
# Time=2388 VIN:1, DIN: 1023, VOUT: 1, DOUT:  168
# Time=2396 VIN:1, DIN:  158, VOUT: 1, DOUT:  192
# Time=2404 VIN:0, DIN:  158, VOUT: 1, DOUT:  240
# Time=2412 VIN:0, DIN:  158, VOUT: 1, DOUT:  248
# Time=2420 VIN:1, DIN:    0, VOUT: 0, DOUT:  200
# Time=2428 VIN:0, DIN:    0, VOUT: 0, DOUT:  200
# Time=2436 VIN:0, DIN:    0, VOUT: 1, DOUT:  200
# Time=2444 VIN:0, DIN:    0, VOUT: 0, DOUT:  192
# Time=2452 VIN:1, DIN:  865, VOUT: 0, DOUT:  192
# Time=2460 VIN:0, DIN:  865, VOUT: 0, DOUT:  192
# Time=2468 VIN:1, DIN: 1023, VOUT: 1, DOUT:  192
# Time=2476 VIN:1, DIN:  609, VOUT: 0, DOUT:   88
# Time=2484 VIN:0, DIN:  609, VOUT: 1, DOUT:   88
# Time=2492 VIN:0, DIN:  609, VOUT: 1, DOUT:   72
# Time=2500 VIN:1, DIN: 1023, VOUT: 0, DOUT:  960
# Time=2508 VIN:1, DIN:  512, VOUT: 0, DOUT:  960
# Time=2516 VIN:1, DIN: 1023, VOUT: 1, DOUT:  960
# Time=2524 VIN:0, DIN: 1023, VOUT: 1, DOUT:  936
# Time=2532 VIN:1, DIN:  609, VOUT: 1, DOUT:  824
# Time=2540 VIN:0, DIN:  609, VOUT: 0, DOUT:  800
# Time=2548 VIN:1, DIN:    0, VOUT: 1, DOUT:  800
# Time=2556 VIN:0, DIN:    0, VOUT: 0, DOUT:  752
# Time=2564 VIN:0, DIN:    0, VOUT: 1, DOUT:  752
# Time=2572 VIN:1, DIN:  865, VOUT: 0, DOUT:  744
# Time=2580 VIN:1, DIN:    0, VOUT: 0, DOUT:  744
# Time=2588 VIN:1, DIN:  158, VOUT: 1, DOUT:  744
# Time=2596 VIN:1, DIN: 1023, VOUT: 1, DOUT:  784
# Time=2604 VIN:1, DIN:  414, VOUT: 1, DOUT:  792
# Time=2612 VIN:0, DIN:  414, VOUT: 1, DOUT:  904
# Time=2620 VIN:1, DIN:    0, VOUT: 1, DOUT:  920
# Time=2628 VIN:0, DIN:    0, VOUT: 0, DOUT:   32
# Time=2636 VIN:0, DIN:    0, VOUT: 1, DOUT:   32
# Time=2644 VIN:0, DIN:    0, VOUT: 0, DOUT:   56
# Time=2652 VIN:0, DIN:    0, VOUT: 0, DOUT:   56
# Time=2660 VIN:1, DIN:  511, VOUT: 0, DOUT:   56
# Time=2668 VIN:1, DIN:    0, VOUT: 0, DOUT:   56
# Time=2676 VIN:1, DIN:  414, VOUT: 1, DOUT:   56
# Time=2684 VIN:0, DIN:  414, VOUT: 1, DOUT:  168
# Time=2692 VIN:0, DIN:  414, VOUT: 1, DOUT:  192
# Time=2700 VIN:0, DIN:  414, VOUT: 0, DOUT:  240
# Time=2708 VIN:1, DIN:    0, VOUT: 0, DOUT:  240
# Time=2716 VIN:0, DIN:    0, VOUT: 0, DOUT:  240
# Time=2724 VIN:0, DIN:    0, VOUT: 1, DOUT:  240
# Time=2732 VIN:1, DIN:  158, VOUT: 0, DOUT:  248
# Time=2740 VIN:0, DIN:  158, VOUT: 0, DOUT:  248
# Time=2748 VIN:0, DIN:  158, VOUT: 1, DOUT:  248
# Time=2756 VIN:1, DIN: 1023, VOUT: 0, DOUT:  208
# Time=2764 VIN:1, DIN:  865, VOUT: 0, DOUT:  208
# Time=2772 VIN:0, DIN:  865, VOUT: 1, DOUT:  208
# Time=2780 VIN:1, DIN: 1023, VOUT: 1, DOUT:  200
# Time=2788 VIN:1, DIN:  609, VOUT: 0, DOUT:   88
# Time=2796 VIN:0, DIN:  609, VOUT: 1, DOUT:   88
# Time=2804 VIN:1, DIN:    0, VOUT: 1, DOUT:   72
# Time=2812 VIN:0, DIN:    0, VOUT: 0, DOUT:  960
# Time=2820 VIN:1, DIN:  512, VOUT: 1, DOUT:  960
# Time=2828 VIN:1, DIN:    0, VOUT: 0, DOUT:  936
