lab1-filters/adv/vcd/iir_syn.vcd
$date
	Tue Nov 21 18:37:44 2023
$end
$version
	QuestaSim Version 2020.4
$end
$timescale
	1ns
$end

$scope module tb_iir $end

$scope module UUT $end
$var wire 1 ! A1 [9] $end
$var wire 1 " A1 [8] $end
$var wire 1 # A1 [7] $end
$var wire 1 $ A1 [6] $end
$var wire 1 % A1 [5] $end
$var wire 1 & A1 [4] $end
$var wire 1 ' A1 [3] $end
$var wire 1 ( A1 [2] $end
$var wire 1 ) A1 [1] $end
$var wire 1 * A1 [0] $end
$var wire 1 + A1_2 [9] $end
$var wire 1 , A1_2 [8] $end
$var wire 1 - A1_2 [7] $end
$var wire 1 . A1_2 [6] $end
$var wire 1 / A1_2 [5] $end
$var wire 1 0 A1_2 [4] $end
$var wire 1 1 A1_2 [3] $end
$var wire 1 2 A1_2 [2] $end
$var wire 1 3 A1_2 [1] $end
$var wire 1 4 A1_2 [0] $end
$var wire 1 5 B0 [9] $end
$var wire 1 6 B0 [8] $end
$var wire 1 7 B0 [7] $end
$var wire 1 8 B0 [6] $end
$var wire 1 9 B0 [5] $end
$var wire 1 : B0 [4] $end
$var wire 1 ; B0 [3] $end
$var wire 1 < B0 [2] $end
$var wire 1 = B0 [1] $end
$var wire 1 > B0 [0] $end
$var wire 1 ? B1 [9] $end
$var wire 1 @ B1 [8] $end
$var wire 1 A B1 [7] $end
$var wire 1 B B1 [6] $end
$var wire 1 C B1 [5] $end
$var wire 1 D B1 [4] $end
$var wire 1 E B1 [3] $end
$var wire 1 F B1 [2] $end
$var wire 1 G B1 [1] $end
$var wire 1 H B1 [0] $end
$var wire 1 I X [9] $end
$var wire 1 J X [8] $end
$var wire 1 K X [7] $end
$var wire 1 L X [6] $end
$var wire 1 M X [5] $end
$var wire 1 N X [4] $end
$var wire 1 O X [3] $end
$var wire 1 P X [2] $end
$var wire 1 Q X [1] $end
$var wire 1 R X [0] $end
$var wire 1 S Y [9] $end
$var wire 1 T Y [8] $end
$var wire 1 U Y [7] $end
$var wire 1 V Y [6] $end
$var wire 1 W Y [5] $end
$var wire 1 X Y [4] $end
$var wire 1 Y Y [3] $end
$var wire 1 Z Y [2] $end
$var wire 1 [ Y [1] $end
$var wire 1 \ Y [0] $end
$var wire 1 ] CLK $end
$var wire 1 ^ RST_N $end
$var wire 1 _ VIN $end
$var wire 1 ` VOUT $end
$var wire 1 a n84 $end
$var wire 1 b n91 $end
$var wire 1 c n108 $end
$var wire 1 d n187 $end
$var wire 1 e n195 $end
$var wire 1 f n208 $end
$var wire 1 g n371 $end
$var wire 1 h n429 $end
$var wire 1 i n430 $end
$var wire 1 j n431 $end
$var wire 1 k n432 $end
$var wire 1 l n433 $end
$var wire 1 m n434 $end
$var wire 1 n n435 $end
$var wire 1 o n436 $end
$var wire 1 p n437 $end
$var wire 1 q n438 $end
$var wire 1 r n439 $end
$var wire 1 s n440 $end
$var wire 1 t n442 $end
$var wire 1 u n443 $end
$var wire 1 v n444 $end
$var wire 1 w n445 $end
$var wire 1 x a1_tmp [9] $end
$var wire 1 y a1_tmp [8] $end
$var wire 1 z a1_tmp [7] $end
$var wire 1 { a1_tmp [6] $end
$var wire 1 | a1_tmp [5] $end
$var wire 1 } a1_tmp [4] $end
$var wire 1 ~ a1_tmp [3] $end
$var wire 1 !! a1_tmp [2] $end
$var wire 1 "! a1_tmp [1] $end
$var wire 1 #! a1_tmp [0] $end
$var wire 1 $! b0_tmp [9] $end
$var wire 1 %! b0_tmp [8] $end
$var wire 1 &! b0_tmp [7] $end
$var wire 1 '! b0_tmp [6] $end
$var wire 1 (! b0_tmp [5] $end
$var wire 1 )! b0_tmp [4] $end
$var wire 1 *! b0_tmp [3] $end
$var wire 1 +! b0_tmp [2] $end
$var wire 1 ,! b0_tmp [1] $end
$var wire 1 -! b0_tmp [0] $end
$var wire 1 .! b1_tmp [9] $end
$var wire 1 /! b1_tmp [8] $end
$var wire 1 0! b1_tmp [7] $end
$var wire 1 1! b1_tmp [6] $end
$var wire 1 2! b1_tmp [5] $end
$var wire 1 3! b1_tmp [4] $end
$var wire 1 4! b1_tmp [3] $end
$var wire 1 5! b1_tmp [2] $end
$var wire 1 6! b1_tmp [1] $end
$var wire 1 7! b1_tmp [0] $end
$var wire 1 8! a1_2_tmp [9] $end
$var wire 1 9! a1_2_tmp [8] $end
$var wire 1 :! a1_2_tmp [7] $end
$var wire 1 ;! a1_2_tmp [6] $end
$var wire 1 <! a1_2_tmp [5] $end
$var wire 1 =! a1_2_tmp [4] $end
$var wire 1 >! a1_2_tmp [3] $end
$var wire 1 ?! a1_2_tmp [2] $end
$var wire 1 @! a1_2_tmp [1] $end
$var wire 1 A! a1_2_tmp [0] $end
$var wire 1 B! x_o_tmp [9] $end
$var wire 1 C! x_o_tmp [8] $end
$var wire 1 D! x_o_tmp [7] $end
$var wire 1 E! x_o_tmp [6] $end
$var wire 1 F! x_o_tmp [5] $end
$var wire 1 G! x_o_tmp [4] $end
$var wire 1 H! x_o_tmp [3] $end
$var wire 1 I! f1_i [10] $end
$var wire 1 J! f1_i [9] $end
$var wire 1 K! f1_i [8] $end
$var wire 1 L! f1_i [7] $end
$var wire 1 M! f1_i [6] $end
$var wire 1 N! f1_i [5] $end
$var wire 1 O! f1_i [4] $end
$var wire 1 P! f1_i [3] $end
$var wire 1 Q! f1_o [10] $end
$var wire 1 R! f1_o [9] $end
$var wire 1 S! f1_o [8] $end
$var wire 1 T! f1_o [7] $end
$var wire 1 U! f1_o [6] $end
$var wire 1 V! f1_o [5] $end
$var wire 1 W! f1_o [4] $end
$var wire 1 X! f1_o [3] $end
$var wire 1 Y! w_i [10] $end
$var wire 1 Z! w_i [9] $end
$var wire 1 [! w_i [8] $end
$var wire 1 \! w_i [7] $end
$var wire 1 ]! w_i [6] $end
$var wire 1 ^! w_i [5] $end
$var wire 1 _! w_i [4] $end
$var wire 1 `! w_i [3] $end
$var wire 1 a! w_o [10] $end
$var wire 1 b! w_o [9] $end
$var wire 1 c! w_o [8] $end
$var wire 1 d! w_o [7] $end
$var wire 1 e! w_o [6] $end
$var wire 1 f! w_o [5] $end
$var wire 1 g! w_o [4] $end
$var wire 1 h! w_o [3] $end
$var wire 1 i! w_o [2] $end
$var wire 1 j! w_o [1] $end
$var wire 1 k! w_o [0] $end
$var wire 1 l! s_i [10] $end
$var wire 1 m! s_i [9] $end
$var wire 1 n! s_i [8] $end
$var wire 1 o! s_i [7] $end
$var wire 1 p! s_i [6] $end
$var wire 1 q! s_i [5] $end
$var wire 1 r! s_i [4] $end
$var wire 1 s! s_i [3] $end
$var wire 1 t! s_o [10] $end
$var wire 1 u! s_o [9] $end
$var wire 1 v! s_o [8] $end
$var wire 1 w! s_o [7] $end
$var wire 1 x! s_o [6] $end
$var wire 1 y! s_o [5] $end
$var wire 1 z! s_o [4] $end
$var wire 1 {! s_o [3] $end
$var wire 1 |! s_o [2] $end
$var wire 1 }! s_o [1] $end
$var wire 1 ~! s_o [0] $end
$var wire 1 !" fb_i [10] $end
$var wire 1 "" fb_i [9] $end
$var wire 1 #" fb_i [8] $end
$var wire 1 $" fb_i [7] $end
$var wire 1 %" fb_i [6] $end
$var wire 1 &" fb_i [5] $end
$var wire 1 '" fb_i [4] $end
$var wire 1 (" fb_i [3] $end
$var wire 1 )" fb_o [10] $end
$var wire 1 *" fb_o [9] $end
$var wire 1 +" fb_o [8] $end
$var wire 1 ," fb_o [7] $end
$var wire 1 -" fb_o [6] $end
$var wire 1 ." fb_o [5] $end
$var wire 1 /" fb_o [4] $end
$var wire 1 0" fb_o [3] $end
$var wire 1 1" s2_o [10] $end
$var wire 1 2" s2_o [9] $end
$var wire 1 3" s2_o [8] $end
$var wire 1 4" s2_o [7] $end
$var wire 1 5" s2_o [6] $end
$var wire 1 6" s2_o [5] $end
$var wire 1 7" s2_o [4] $end
$var wire 1 8" s2_o [3] $end
$var wire 1 9" s2_o [2] $end
$var wire 1 :" s2_o [1] $end
$var wire 1 ;" s2_o [0] $end
$var wire 1 <" f3_i [9] $end
$var wire 1 =" f3_i [8] $end
$var wire 1 >" f3_i [7] $end
$var wire 1 ?" f3_i [6] $end
$var wire 1 @" f3_i [5] $end
$var wire 1 A" f3_i [4] $end
$var wire 1 B" f3_i [3] $end
$var wire 1 C" f3_o [9] $end
$var wire 1 D" f3_o [8] $end
$var wire 1 E" f3_o [7] $end
$var wire 1 F" f3_o [6] $end
$var wire 1 G" f3_o [5] $end
$var wire 1 H" f3_o [4] $end
$var wire 1 I" f2_i [9] $end
$var wire 1 J" f2_i [8] $end
$var wire 1 K" f2_i [7] $end
$var wire 1 L" f2_i [6] $end
$var wire 1 M" f2_i [5] $end
$var wire 1 N" f2_i [4] $end
$var wire 1 O" f2_i [3] $end
$var wire 1 P" f2_o [9] $end
$var wire 1 Q" f2_o [8] $end
$var wire 1 R" f2_o [7] $end
$var wire 1 S" f2_o [6] $end
$var wire 1 T" f2_o [5] $end
$var wire 1 U" f2_o [4] $end
$var wire 1 V" y_i [9] $end
$var wire 1 W" y_i [8] $end
$var wire 1 X" y_i [7] $end
$var wire 1 Y" y_i [6] $end
$var wire 1 Z" y_i [5] $end
$var wire 1 [" y_i [4] $end
$var wire 1 \" y_i [3] $end
$var wire 1 ]" add_287_carry [9] $end
$var wire 1 ^" add_287_carry [8] $end
$var wire 1 _" add_287_carry [7] $end
$var wire 1 `" add_287_carry [6] $end
$var wire 1 a" add_287_carry [5] $end
$var wire 1 b" add_287_carry [4] $end
$upscope $end
$upscope $end
$enddefinitions $end
#0
$dumpvars
0]
0^
xR
xQ
xP
xO
xN
xM
xL
xK
xJ
xI
1>
1=
1<
0;
1:
09
18
17
06
05
1H
1G
1F
0E
1D
0C
1B
1A
0@
0?
0*
1)
0(
0'
1&
0%
1$
0#
0"
0!
14
03
12
11
00
0/
0.
0-
0,
0+
0\
0[
0Z
0Y
0X
0W
0V
0U
0T
0S
x_
x`
1a
1b
xc
xd
0e
0f
1g
0h
0i
0j
0k
0l
0m
0n
0o
0p
0q
0r
0s
0t
0u
0v
0w
0#!
0"!
0!!
0~
0}
0|
0{
0z
0y
0x
0-!
0,!
0+!
0*!
0)!
0(!
0'!
0&!
0%!
0$!
07!
06!
05!
04!
03!
02!
01!
00!
0/!
0.!
0A!
0@!
0?!
0>!
0=!
0<!
0;!
0:!
09!
08!
0H!
0G!
0F!
0E!
0D!
0C!
0B!
0P!
0O!
0N!
0M!
0L!
0K!
0J!
0I!
0X!
0W!
0V!
0U!
0T!
0S!
0R!
0Q!
0`!
0_!
0^!
0]!
0\!
0[!
0Z!
0Y!
0k!
0j!
0i!
0h!
0g!
0f!
0e!
0d!
0c!
0b!
0a!
0s!
0r!
0q!
0p!
0o!
0n!
0m!
0l!
0~!
0}!
0|!
0{!
0z!
0y!
0x!
0w!
0v!
0u!
0t!
0("
0'"
0&"
0%"
0$"
0#"
0""
0!"
00"
0/"
0."
0-"
0,"
0+"
0*"
0)"
0;"
0:"
09"
08"
07"
06"
05"
04"
03"
02"
01"
0B"
0A"
0@"
0?"
0>"
0="
0<"
0H"
0G"
0F"
0E"
0D"
0C"
0O"
0N"
0M"
0L"
0K"
0J"
0I"
0U"
0T"
0S"
0R"
0Q"
0P"
0\"
0["
0Z"
0Y"
0X"
0W"
0V"
0b"
0a"
0`"
0_"
0^"
0]"
$end
#4
x]
xw
#5
0I
0J
0K
0L
0M
0N
0O
0P
0Q
0R
0_
1]
#8
0]
0w
#12
1]
#16
0]
#20
1^
1s
1r
1q
1j
1l
1k
1m
1o
1n
1p
1]
0d
1{
1-!
1,!
1}
1"!
1+!
1)!
1'!
1&!
17!
16!
15!
13!
11!
10!
1>!
1?!
1A!
1="
1<"
1J"
1I"
0="
0J"
1'"
1("
1A"
0<"
1N"
0I"
1&"
1@"
1P!
1M"
1%"
1?"
1O!
0A"
1L"
0N"
1$"
1>"
1N!
1B"
0@"
1K"
1O"
0M"
1#"
1="
1M!
1A"
0?"
1J"
1N"
0L"
1""
1<"
1L!
1@"
0>"
1I"
1M"
0K"
1K!
1?"
0="
1L"
0J"
1!"
0B"
1J!
1>"
0<"
0O"
1K"
0I"
0("
0A"
1I!
1="
0N"
1J"
0'"
0@"
0P!
1<"
0M"
1I"
0&"
0?"
0O!
0L"
0%"
0>"
0N!
0K"
0$"
0="
0M!
0J"
0#"
0<"
0L!
0I"
0""
0K!
0J!
0!"
0I!
#24
0]
#28
1]
1c
0`
#32
0]
#33
1_
#36
1]
1f
#40
0]
#41
1K
1N
1O
1P
1Q
#44
1]
1w
1u
1D!
1G!
1H!
1t
1i
1\!
1_!
1`!
1O!
1N!
1M!
1P!
0N!
0M!
0P!
0O!
1O!
1N!
0N!
1P!
#48
0]
0w
#49
0K
0N
0O
0P
0Q
#52
1]
1w
0u
0D!
0G!
0H!
0t
1h!
1d!
1X!
1W!
1g!
1h
1j!
1i!
0\!
1s!
1o!
1r!
0O!
1N!
1M!
0N!
1L!
0M!
1K!
1O!
0L!
1J!
1N!
0K!
1I!
1M!
0J!
1L!
0I!
1K!
1J!
1I!
0P!
0O!
0N!
0M!
0L!
0K!
0J!
0I!
#56
0]
0w
#57
1J
1K
1N
1O
1P
1Q
#60
1]
1w
1u
1D!
1G!
1H!
1t
1C!
1z!
0d!
0X!
0W!
1w!
1{!
0j!
0i!
1e
1}!
1|!
1\!
1[!
0o!
0g
1d
1?"
1>"
1M!
1L!
1B"
0>"
1A"
0L!
1P!
1("
1'"
1&"
1@"
0B"
0P!
0("
0'"
0&"
0?"
0A"
1B"
0@"
1A"
0B"
1?"
1@"
0A"
0?"
0@"
1?"
#64
0]
0w
#65
0J
0K
0N
0O
0P
0Q
#68
1]
1w
0c
1`
0u
0D!
0G!
0H!
0t
0C!
1U!
1d!
1F"
1c!
0w!
19"
1j!
1i!
1:"
0}!
0|!
17"
14"
18"
0\!
0_!
0`!
0[!
1]!
1o!
1Y"
1n!
0?"
1>"
1L"
1K"
1O!
0M!
1L!
0>"
1="
1A"
1@"
1B"
1O"
0K"
1N"
0O!
0L!
1K!
1("
1'"
1&"
0="
1<"
0@"
1M"
0O"
1P!
1O!
0K!
1J!
0("
1%"
0<"
0A"
0L"
0N"
1O"
1N!
0J!
1I!
0'"
1$"
0M"
1N"
0O"
1M!
0I!
0&"
1#"
1L"
1M"
0N"
1L!
0%"
1""
0L"
0M"
1K!
0$"
1L"
1J!
0#"
1!"
1I!
0""
0P!
0!"
0O!
0N!
0M!
0L!
0K!
0J!
0I!
#72
0]
0w
#73
1J
1K
1L
1M
1N
1O
1P
1Q
1R
#76
1]
1w
1u
1D!
1G!
1H!
1t
1C!
1E!
1F!
1v
0U!
0d!
0F"
0c!
1w!
09"
0j!
0i!
0:"
1}!
1|!
0b
04"
1S"
0g!
0h!
1e!
1v!
1V
1\!
1_!
1`!
1[!
1^!
0o!
0n!
1\"
0r!
0s!
1p!
1?"
0L"
1K"
1="
1M!
1L!
1A"
0K"
1J"
1N"
1M"
1O"
1("
1'"
0?"
0B"
1O!
1N!
0L!
0("
0'"
1&"
0="
1B"
0J"
1I"
0M"
1>"
0N!
1("
1'"
0&"
0A"
1@"
0I"
0N"
0'"
0B"
1B"
1A"
0A"
#80
0]
0w
#81
0_
#84
1]
1w
0f
1U!
1d!
1G"
1c!
0w!
19"
1j!
1i!
1:"
0}!
0|!
1E"
14"
0S"
1g!
1h!
1W!
0v!
1k!
13"
1f!
0z!
0{!
1x!
10"
0a
1Y
1g
0]!
1o!
1Z"
1n!
1X"
0Y"
1r!
0_!
1q!
1b"
0\"
0d
0\!
0^!
0r!
1["
0[!
1]!
0q!
1Z!
1?"
1L"
0>"
1="
1J"
0p!
1>"
1A"
0@"
1N"
0("
0="
1<"
0B"
0L"
0O"
0o!
1'"
1&"
1="
0>"
1B"
0J"
1O"
0<"
1K"
0n!
0'"
1%"
1("
1<"
0?"
0="
0N"
1M"
1m!
0&"
1$"
0<"
0O"
0("
0%"
1#"
1O"
1N"
0$"
1""
0N"
0#"
0""
1!"
0!"
#88
0]
0w
#89
1I
1_
#92
1]
1c
0`
1f
1B!
1X
0V
1U
1W
0Y
0g
0Z!
1Y!
1d
0Y!
1L!
1K!
0O!
1P!
1J!
0L!
0P!
1P!
1I!
0K!
1L!
0M!
1O!
0J!
1K!
0L!
1N!
0I!
1J!
0K!
1M!
1I!
0J!
1L!
0I!
1K!
1J!
1I!
#96
0]
#97
0I
0L
0M
0R
#100
1]
1w
0c
1`
0v
0F!
0E!
0B!
0d!
0G"
0c!
1V!
09"
1Q!
1R!
0:"
1}!
1|!
0E"
04"
1X!
0g!
1S!
1T!
03"
0f!
1u!
1T"
0x!
00"
1R"
1~!
07"
08"
15"
1H"
0]!
1o!
1n!
0`!
1r!
1[!
1\!
1q!
1s!
0["
1a"
0n!
0m!
1_!
0q!
1p!
0r!
0Z"
1`"
0o!
1Y"
0L!
1L"
0K"
1J"
1="
1<"
0P!
1L!
0N!
1K"
1N"
0M"
0J"
1I"
0O"
1'"
1&"
1%"
0<"
0A"
1@"
0O!
1N!
0L!
0B"
1J"
0K"
1O"
0I"
0&"
0%"
1("
1>"
1A"
1?"
0N!
0M!
0K!
1I"
0L"
0J"
0'"
0="
0@"
1M!
0J!
0I"
1B"
0I!
#104
0]
0w
#105
1I
1L
1M
1R
#108
1]
1w
1v
1F!
1E!
1B!
1U"
1d!
1{!
1c!
0V!
19"
0Q!
0R!
1:"
0h!
0e!
1E"
1;"
0X!
1g!
0S!
0W!
0T!
1F"
12"
0k!
0u!
0T"
1x!
10"
0R"
05"
1V
0W
0X
1]!
1["
1o!
1n!
0p!
1`!
1r!
0[!
0_!
0\!
0Y"
1_"
1Z"
0`"
1_!
0X"
1^"
1Y"
0_"
1^!
1W"
1X"
0^"
1L!
1K!
0]!
1J"
1I"
1="
1<"
0W"
1N!
1P!
0B"
0I"
0N"
1'"
1&"
1%"
0?"
1@"
0A"
1M"
0N!
1J!
0L!
1O!
0O"
1K"
1N"
1L"
1$"
0("
0>"
0@"
0M!
1I!
0K!
1L!
1N!
1B"
1@"
0J"
0M"
1#"
0'"
0="
0L!
0J!
1K!
1M!
1A"
1O"
1""
0&"
0<"
0B"
0K!
0I!
1J!
1L!
0@"
0%"
0A"
0J!
1I!
1K!
1!"
0$"
1@"
0I!
1J!
0#"
1I!
0""
0!"
#112
0]
0w
#113
0I
0J
0L
0M
0R
#116
1]
1w
0v
0F!
0E!
0B!
0C!
1S"
0d!
0H"
0c!
1V!
1G"
1Q!
1R!
1b
1h!
1f!
0E"
1z!
1X!
1v!
1S!
1W!
1T!
0F"
02"
1k!
1w!
0~!
0x!
00"
1R"
15"
18"
1W
1X
1]!
0o!
0["
0n!
0Z"
1`"
0b"
1\"
1q!
0`!
0_!
1\!
0\!
0Y"
1_"
1["
0a"
1_!
0^!
0X"
1^"
1Z"
0`"
0]!
0L!
1W"
1Y"
0_"
1="
1\!
1J"
1I"
1?"
1L!
1X"
0^"
1B"
1'"
0L"
1M"
0N"
0O"
0N!
0P!
0M!
0W"
0'"
0="
0K"
0M"
1("
1&"
0?"
0L!
0&"
0J"
1M"
1>"
1O"
0K!
0B"
0I"
0O"
1N"
1P!
0J!
1A"
1B"
0N"
0M"
0I!
0A"
1M"
#120
0]
0w
#121
1I
1J
1L
1M
1R
#124
1]
1w
1v
1F!
1E!
1B!
1C!
0S"
1d!
0U!
1a
0V!
0U"
0Q!
0R!
0b
0h!
0f!
1E"
1T"
1y!
0v!
0S!
0;"
0T!
14"
13"
0k!
0w!
1~!
17"
10"
0R"
05"
1Y
0Y"
1o!
0["
0q!
0Z"
1`"
0\!
1Y"
1L!
1K!
0>"
1="
1L"
1J"
1?"
0L!
0("
0="
1<"
0?"
0B"
1O"
1>"
1N!
0K!
1J!
1M!
0P!
1A"
0<"
0>"
0J"
0L"
1("
1'"
1&"
1="
0J!
1I!
1L!
0O!
0@"
0="
1B"
0A"
1K"
0("
1%"
1<"
0I!
1K!
1P!
0N!
0<"
1A"
0'"
1$"
0O"
1J!
1O!
0M!
1O"
0&"
1#"
1N"
1I!
1N!
0L!
0N"
0%"
1""
1M!
0K!
0$"
1L!
0J!
0#"
1!"
1K!
0I!
0""
1J!
1I!
0!"
#128
0]
0w
#129
0K
0N
0O
0P
0Q
#132
1]
1w
0u
0t
0H!
0G!
0D!
0G"
0d!
1U!
0a
1V!
1H"
1Q!
1R!
16"
1R"
00"
0E"
0~!
0y!
1w!
1S!
1;"
1T!
04"
03"
1k!
0X
0W
1`!
0_!
1Z"
0`"
0o!
1]!
1b"
0\"
1^!
1["
1Y!
1Z!
0s!
1[!
1_!
0Y"
0["
1a"
0^!
0Z"
1`"
1Y"
1?"
1>"
1L"
0K"
1J"
0O!
0N!
0P!
1@"
0>"
0B"
1K"
0J"
1I"
0L"
0O"
1N!
1O!
1N"
0?"
1("
1'"
1&"
1B"
0A"
1J"
0I"
0K"
0O!
0M"
0B"
0("
0'"
0&"
1A"
0@"
1I"
1O"
0J"
0N"
0A"
1@"
1?"
1N"
0I"
0@"
0?"
1?"
#136
0]
0w
#137
1K
1N
1O
1P
1Q
#140
1]
1w
1u
1t
1H!
1G!
1D!
0T"
1U"
1b
0X!
0W!
0H"
1F"
1c!
06"
0R"
0{!
1b!
1~!
1a!
0w!
1e!
0;"
1h!
14"
0i!
0j!
0Y
1\!
1Z"
0`"
0b"
1\"
0Y"
1_"
1n!
0X"
1m!
1l!
1p!
1s!
1Y"
0_"
1["
0a"
1X"
0X"
0Z"
0?"
1>"
1L"
1K"
1O!
0N!
1M"
0>"
1="
1A"
1@"
0K"
0O"
1N!
0M!
1P!
0L"
1B"
1("
1'"
1&"
0="
1<"
0@"
1O"
0N"
1M!
0L!
0O"
0A"
0("
1%"
0<"
1N"
0M"
0P!
1L!
0K!
0N"
0'"
1$"
1M"
1L"
0O!
1K!
0J!
0M"
0&"
1#"
0L"
0N!
1J!
0I!
1L"
0%"
1""
1P!
0M!
1I!
0$"
1O!
0L!
0#"
1!"
1N!
0K!
0""
1M!
0J!
1L!
0I!
0!"
1K!
1J!
1I!
#144
0]
0w
#145
0_
#148
1]
1w
0f
1a
0U"
0b
1X!
1W!
1S"
0F"
1x!
1t!
1u!
1{!
1v!
1d!
0}!
0|!
08"
1;"
1j!
04"
1i!
1Y
0U
1X
1g
0["
0`!
0_!
1o!
0d
1_!
1^!
1<"
1>"
1="
0L"
1K"
1$"
1#"
1'"
0<"
0>"
1A"
1@"
0B"
0K"
1J"
1N"
1M"
0'"
0$"
1&"
1<"
0="
1>"
1O"
0J"
1I"
0M"
0&"
0#"
1""
1%"
1B"
0A"
0<"
1="
0N"
0I"
0%"
1("
0""
1$"
0B"
1A"
0@"
1<"
0$"
1'"
1!"
1#"
1@"
1?"
1B"
0#"
1&"
0!"
1""
0?"
0""
1%"
1$"
1!"
0!"
1#"
1""
1!"
#152
0]
0w
#156
1]
1c
0`
0X
#160
0]
#164
1]
#168
0]
#172
1]
#176
0]
#180
1]
#184
0]
#188
1]
#192
0]
#193
0J
0K
0N
0O
0P
0Q
1_
#196
1]
0C!
0D!
0G!
0H!
0t
0u
1f
0[!
0\!
0_!
1`!
0g
1_!
1d
0^!
0M!
0O!
0N!
1O!
1M!
1N!
0M!
0P!
0O!
1P!
0N!
1O!
1M!
1N!
0M!
#200
0]
#201
0_
#204
1]
1w
0c
1`
0f
0a
0U!
0S"
0c!
1)"
10"
1-"
1*"
1."
0d!
1}!
1|!
18"
1G"
0j!
1H"
0i!
15"
11"
12"
13"
0:"
09"
1w!
1C"
1E"
1D"
1/"
1,"
1+"
1g
1b"
0\"
0]!
0Y"
0l!
0s!
0p!
0m!
1q!
1Z"
1["
1V"
1X"
1W"
0r!
0d
0["
1a"
1r!
0o!
1l!
0q!
0Z"
1`"
0n!
1I"
1p!
1Y"
1m!
1K"
1J"
1?"
0>"
0I"
0K"
1N"
1M"
0O"
1>"
0="
0A"
0B"
1I"
0J"
1K"
1="
0<"
1A"
1O"
0N"
0I"
1J"
1<"
1B"
0O"
1N"
0M"
1I"
0A"
0B"
1M"
1L"
1O"
1A"
0L"
#208
0]
0w
#212
1]
1c
0`
1S
1U
0Y
1T
#216
0]
#220
1]
#224
0]
#228
1]
#232
0]
#236
1]
#240
0]
#241
1J
1K
1N
1O
1P
1Q
1_
#244
1]
1C!
1D!
1G!
1H!
1t
1u
1f
1[!
1\!
0_!
0`!
0g
1^!
1_!
1d
1M!
0O!
1O!
0P!
0O!
1P!
0N!
1O!
0P!
0M!
1N!
0O!
0L!
1M!
1P!
0N!
0K!
1L!
1O!
0M!
0J!
1K!
1N!
0L!
0I!
1J!
1M!
0K!
1I!
1L!
0J!
1K!
0I!
1J!
1I!
#248
0]
#249
0J
0K
0L
0M
0N
0O
0P
0Q
0R
#252
1]
1w
0c
1`
0C!
0D!
0G!
0H!
0t
0u
0v
0E!
0F!
1b
1U!
1T"
1U"
1c!
1d!
0}!
0|!
1f!
0h!
1j!
1i!
1P"
0v!
0{!
0e!
1:"
19"
1F"
1Q"
0w!
1R"
14"
0[!
0\!
0_!
1`!
0^!
0b"
1\"
1Z"
1["
1n!
1o!
1q!
1s!
0V"
0p!
0Y"
1_"
0W"
1]"
0X"
1^"
1_!
0["
0r!
1X"
1V"
1W"
1^!
1]!
0="
0?"
1L"
0K"
0M!
1\!
0("
0@"
1B"
1K"
0J"
0N"
0O"
0O!
1[!
1?"
0>"
1="
0A"
0B"
1J"
0I"
1N"
0Z!
1B"
1A"
1I"
1O"
0P!
0A"
0N"
0O"
1O!
1P!
1N"
0O!
#256
0]
0w
#257
0_
#260
1]
1w
0f
0b!
0b
0U!
00"
1S"
0H"
0z!
0E"
1a
0G"
0x!
0W!
1y!
1}!
1|!
08"
1h!
0j!
03"
0i!
0k!
1v!
1{!
1e!
0:"
09"
04"
1w!
1Y
1W
0V
1g
0m!
0]!
1Y"
1["
0a"
0X"
0Z"
0_!
1p!
0d
1Z"
0`"
0Y"
0J"
1>"
0="
0L"
0?"
0B"
1A"
1?"
0M"
1O"
1("
1="
0<"
0>"
0A"
1>"
1L"
0K"
1J"
0N"
1<"
0O"
0="
1@"
1="
1O"
1N"
0("
0<"
1("
1<"
0N"
0'"
1'"
1B"
0&"
1&"
1A"
0%"
1%"
0@"
0$"
1$"
0#"
1#"
0""
1""
0!"
1!"
#264
0]
0w
#268
1]
1c
0`
1X
0U
#272
0]
#276
1]
#280
0]
#284
1]
#288
0]
#289
0I
1_
#292
1]
0B!
1f
1Z!
0Y!
0g
1Y!
1d
0L!
1L!
1M!
0N!
0P!
1O!
1N!
1P!
0P!
0O!
0N!
0M!
0L!
0K!
0J!
0I!
#296
0]
#297
0_
#300
1]
1w
0c
1`
0f
1b!
0Q!
10"
0R!
1H"
0S!
1E"
0a
0X!
1x!
0V!
0}!
0|!
18"
0T!
13"
0U"
0R"
0T"
0g!
0e!
1:"
19"
14"
0u!
07"
05"
16"
0~!
1g
1m!
0Y!
0s!
0Z!
0[!
1b"
0\"
0`!
0^!
0\!
0Z"
1r!
0p!
0d
0r!
0["
1a"
0q!
1q!
1Z"
1K"
0J"
0L"
0="
0<"
1@"
1J"
0I"
1L"
0O"
1N"
0K"
0'"
0&"
1<"
0>"
0@"
1I"
1K"
0N"
0J"
0("
1>"
1="
0?"
1J"
1M"
0I"
0%"
1'"
1&"
0="
0>"
1I"
0$"
1%"
1="
1O"
0#"
1$"
1N"
0""
1#"
0M"
1""
0!"
1!"
#304
0]
0w
#305
1I
1L
1M
1R
1_
#308
1]
1c
0`
1f
1v
1B!
1E!
1F!
0X
0Y
0g
1Z!
1Y!
1]!
1^!
1d
1L!
1K!
0L!
1N!
0K!
1J!
0N!
1P!
0P!
0J!
1I!
1M!
1L!
1O!
0O!
0I!
1K!
1N!
1P!
0N!
1J!
0M!
1O!
1M!
1I!
1N!
0M!
#312
0]
#313
0_
#316
1]
1w
0c
1`
0f
1Q!
1W!
00"
1R!
1S!
0E"
1k!
1X!
0x!
0F"
1V!
0d!
0h!
1T!
0c!
1U"
1R"
0{!
0;"
1e!
0:"
09"
02"
1u!
15"
1g
0Y!
1_!
0Z!
1[!
1`!
1Y"
0_"
0^!
0o!
1\!
0n!
1["
1p!
0d
1r!
1Y!
1X"
0^"
0]!
0q!
0W"
0\!
0[!
0J"
0I"
0="
0<"
1@"
1Z!
1I"
0'"
1?"
1M"
0?"
0@"
0B"
0K"
0M"
0&"
1("
1>"
1?"
1J"
0L"
1K"
0%"
1'"
1="
0K"
0J"
0$"
1&"
1<"
1J"
0#"
1%"
0""
1$"
1#"
0!"
1""
1!"
#320
0]
0w
#324
1]
1c
0`
1U
1X
1V
0T
#328
0]
#332
1]
#336
0]
#337
0I
0L
0M
0R
1_
#340
1]
0B!
0E!
0F!
0v
1f
0Z!
0Y!
1]!
1^!
0g
1\!
0]!
1d
1[!
0L!
1Z!
1L!
1M!
0N!
1Y!
1N!
0P!
0O!
0N!
0M!
0L!
0K!
0J!
0I!
#344
0]
#345
1I
1J
1L
1M
1R
